# Blender v2.90.1 OBJ File: 'torus-bricks.blend'
# www.blender.org
mtllib torus-bricks.mtl
o Torus
v 1.250000 0.000000 0.000000
v 1.216506 -0.000000 0.125000
v 1.125000 -0.000000 0.216506
v 1.000000 -0.000000 0.250000
v 0.875000 -0.000000 0.216506
v 0.783494 -0.000000 0.125000
v 0.750000 -0.000000 0.000000
v 0.783494 0.000000 -0.125000
v 0.875000 0.000000 -0.216506
v 1.000000 0.000000 -0.250000
v 1.125000 0.000000 -0.216506
v 1.216506 0.000000 -0.125000
v 1.239306 0.163158 0.000000
v 1.206099 0.158786 0.125000
v 1.115376 0.146842 0.216506
v 0.991445 0.130526 0.250000
v 0.867514 0.114210 0.216506
v 0.776791 0.102266 0.125000
v 0.743584 0.097895 0.000000
v 0.776791 0.102266 -0.125000
v 0.867514 0.114210 -0.216506
v 0.991445 0.130526 -0.250000
v 1.115376 0.146842 -0.216506
v 1.206099 0.158786 -0.125000
v 1.207407 0.323524 0.000000
v 1.175055 0.314855 0.125000
v 1.086667 0.291171 0.216506
v 0.965926 0.258819 0.250000
v 0.845185 0.226467 0.216506
v 0.756797 0.202783 0.125000
v 0.724444 0.194114 0.000000
v 0.756797 0.202783 -0.125000
v 0.845185 0.226467 -0.216506
v 0.965926 0.258819 -0.250000
v 1.086667 0.291171 -0.216506
v 1.175055 0.314855 -0.125000
v 1.154849 0.478354 0.000000
v 1.123905 0.465537 0.125000
v 1.039364 0.430519 0.216506
v 0.923880 0.382683 0.250000
v 0.808395 0.334848 0.216506
v 0.723854 0.299830 0.125000
v 0.692910 0.287013 0.000000
v 0.723854 0.299830 -0.125000
v 0.808395 0.334848 -0.216506
v 0.923880 0.382683 -0.250000
v 1.039364 0.430519 -0.216506
v 1.123905 0.465537 -0.125000
v 1.082532 0.625000 0.000000
v 1.053525 0.608253 0.125000
v 0.974279 0.562500 0.216506
v 0.866025 0.500000 0.250000
v 0.757772 0.437500 0.216506
v 0.678525 0.391747 0.125000
v 0.649519 0.375000 0.000000
v 0.678525 0.391747 -0.125000
v 0.757772 0.437500 -0.216506
v 0.866025 0.500000 -0.250000
v 0.974279 0.562500 -0.216506
v 1.053525 0.608253 -0.125000
v 0.991692 0.760952 0.000000
v 0.965119 0.740562 0.125000
v 0.892523 0.684856 0.216506
v 0.793353 0.608761 0.250000
v 0.694184 0.532666 0.216506
v 0.621587 0.476961 0.125000
v 0.595015 0.456571 0.000000
v 0.621587 0.476961 -0.125000
v 0.694184 0.532666 -0.216506
v 0.793353 0.608761 -0.250000
v 0.892523 0.684857 -0.216506
v 0.965119 0.740562 -0.125000
v 0.883883 0.883884 0.000000
v 0.860200 0.860200 0.125000
v 0.795495 0.795495 0.216506
v 0.707107 0.707107 0.250000
v 0.618718 0.618718 0.216506
v 0.554014 0.554014 0.125000
v 0.530330 0.530330 0.000000
v 0.554014 0.554014 -0.125000
v 0.618718 0.618719 -0.216506
v 0.707107 0.707107 -0.250000
v 0.795495 0.795495 -0.216506
v 0.860200 0.860200 -0.125000
v 0.760952 0.991691 0.000000
v 0.740562 0.965119 0.125000
v 0.684857 0.892522 0.216506
v 0.608762 0.793353 0.250000
v 0.532666 0.694184 0.216506
v 0.476961 0.621587 0.125000
v 0.456571 0.595015 0.000000
v 0.476961 0.621587 -0.125000
v 0.532666 0.694184 -0.216506
v 0.608762 0.793353 -0.250000
v 0.684857 0.892522 -0.216506
v 0.740562 0.965119 -0.125000
v 0.625000 1.082532 0.000000
v 0.608253 1.053525 0.125000
v 0.562500 0.974279 0.216507
v 0.500000 0.866025 0.250000
v 0.437500 0.757772 0.216506
v 0.391747 0.678525 0.125000
v 0.375000 0.649519 0.000000
v 0.391747 0.678525 -0.125000
v 0.437500 0.757772 -0.216506
v 0.500000 0.866026 -0.250000
v 0.562500 0.974279 -0.216506
v 0.608253 1.053525 -0.125000
v 0.478355 1.154849 0.000000
v 0.465537 1.123905 0.125000
v 0.430519 1.039364 0.216507
v 0.382684 0.923879 0.250000
v 0.334848 0.808394 0.216506
v 0.299830 0.723854 0.125000
v 0.287013 0.692910 0.000000
v 0.299830 0.723854 -0.125000
v 0.334848 0.808395 -0.216506
v 0.382684 0.923880 -0.250000
v 0.430519 1.039364 -0.216506
v 0.465537 1.123905 -0.125000
v 0.323524 1.207407 0.000000
v 0.314855 1.175055 0.125000
v 0.291171 1.086667 0.216507
v 0.258819 0.965926 0.250000
v 0.226467 0.845185 0.216506
v 0.202783 0.756797 0.125000
v 0.194114 0.724444 0.000000
v 0.202783 0.756797 -0.125000
v 0.226467 0.845185 -0.216506
v 0.258819 0.965926 -0.250000
v 0.291171 1.086667 -0.216506
v 0.314855 1.175055 -0.125000
v 0.163158 1.239306 0.000000
v 0.158786 1.206099 0.125000
v 0.146842 1.115376 0.216507
v 0.130526 0.991445 0.250000
v 0.114210 0.867514 0.216506
v 0.102266 0.776791 0.125000
v 0.097895 0.743584 0.000000
v 0.102266 0.776791 -0.125000
v 0.114210 0.867514 -0.216506
v 0.130526 0.991445 -0.250000
v 0.146842 1.115376 -0.216506
v 0.158786 1.206099 -0.125000
v 0.000000 1.250000 0.000000
v 0.000000 1.216506 0.125000
v 0.000000 1.125000 0.216507
v 0.000000 1.000000 0.250000
v 0.000000 0.875000 0.216506
v 0.000000 0.783494 0.125000
v 0.000000 0.750000 0.000000
v 0.000000 0.783494 -0.125000
v 0.000000 0.875000 -0.216506
v 0.000000 1.000000 -0.250000
v 0.000000 1.125000 -0.216506
v 0.000000 1.216506 -0.125000
v -0.163158 1.239306 0.000000
v -0.158786 1.206099 0.125000
v -0.146842 1.115375 0.216507
v -0.130526 0.991445 0.250000
v -0.114211 0.867514 0.216506
v -0.102267 0.776791 0.125000
v -0.097895 0.743584 0.000000
v -0.102267 0.776791 -0.125000
v -0.114211 0.867514 -0.216506
v -0.130526 0.991445 -0.250000
v -0.146842 1.115375 -0.216506
v -0.158786 1.206099 -0.125000
v -0.323524 1.207407 0.000000
v -0.314855 1.175055 0.125000
v -0.291171 1.086667 0.216507
v -0.258819 0.965926 0.250000
v -0.226467 0.845185 0.216506
v -0.202783 0.756797 0.125000
v -0.194114 0.724444 0.000000
v -0.202783 0.756797 -0.125000
v -0.226467 0.845185 -0.216506
v -0.258819 0.965926 -0.250000
v -0.291171 1.086667 -0.216506
v -0.314855 1.175055 -0.125000
v -0.478354 1.154849 0.000000
v -0.465537 1.123905 0.125000
v -0.430519 1.039364 0.216507
v -0.382684 0.923879 0.250000
v -0.334848 0.808394 0.216506
v -0.299830 0.723854 0.125000
v -0.287013 0.692910 0.000000
v -0.299830 0.723854 -0.125000
v -0.334848 0.808395 -0.216506
v -0.382684 0.923880 -0.250000
v -0.430519 1.039364 -0.216506
v -0.465537 1.123905 -0.125000
v -0.625000 1.082532 0.000000
v -0.608253 1.053526 0.125000
v -0.562500 0.974279 0.216507
v -0.500000 0.866025 0.250000
v -0.437500 0.757772 0.216506
v -0.391747 0.678525 0.125000
v -0.375000 0.649519 0.000000
v -0.391747 0.678525 -0.125000
v -0.437500 0.757772 -0.216506
v -0.500000 0.866026 -0.250000
v -0.562500 0.974279 -0.216506
v -0.608253 1.053526 -0.125000
v -0.760952 0.991692 0.000000
v -0.740562 0.965119 0.125000
v -0.684857 0.892522 0.216506
v -0.608761 0.793353 0.250000
v -0.532666 0.694184 0.216506
v -0.476961 0.621587 0.125000
v -0.456571 0.595015 0.000000
v -0.476961 0.621587 -0.125000
v -0.532666 0.694184 -0.216506
v -0.608761 0.793353 -0.250000
v -0.684857 0.892523 -0.216506
v -0.740562 0.965119 -0.125000
v -0.883884 0.883883 0.000000
v -0.860200 0.860200 0.125000
v -0.795495 0.795495 0.216506
v -0.707107 0.707107 0.250000
v -0.618719 0.618718 0.216506
v -0.554014 0.554013 0.125000
v -0.530330 0.530330 0.000000
v -0.554014 0.554013 -0.125000
v -0.618719 0.618718 -0.216506
v -0.707107 0.707107 -0.250000
v -0.795495 0.795495 -0.216506
v -0.860200 0.860200 -0.125000
v -0.991692 0.760952 0.000000
v -0.965119 0.740562 0.125000
v -0.892522 0.684857 0.216506
v -0.793353 0.608761 0.250000
v -0.694184 0.532666 0.216506
v -0.621587 0.476961 0.125000
v -0.595015 0.456571 0.000000
v -0.621587 0.476961 -0.125000
v -0.694184 0.532666 -0.216506
v -0.793353 0.608761 -0.250000
v -0.892522 0.684857 -0.216506
v -0.965119 0.740562 -0.125000
v -1.082532 0.625000 0.000000
v -1.053525 0.608253 0.125000
v -0.974278 0.562500 0.216506
v -0.866025 0.500000 0.250000
v -0.757772 0.437500 0.216506
v -0.678525 0.391747 0.125000
v -0.649519 0.375000 0.000000
v -0.678525 0.391747 -0.125000
v -0.757772 0.437500 -0.216506
v -0.866025 0.500000 -0.250000
v -0.974278 0.562500 -0.216506
v -1.053525 0.608253 -0.125000
v -1.154849 0.478354 0.000000
v -1.123905 0.465537 0.125000
v -1.039364 0.430519 0.216506
v -0.923880 0.382683 0.250000
v -0.808395 0.334848 0.216506
v -0.723854 0.299830 0.125000
v -0.692910 0.287013 0.000000
v -0.723854 0.299830 -0.125000
v -0.808395 0.334848 -0.216506
v -0.923880 0.382684 -0.250000
v -1.039364 0.430519 -0.216506
v -1.123905 0.465537 -0.125000
v -1.207407 0.323524 0.000000
v -1.175055 0.314855 0.125000
v -1.086667 0.291171 0.216506
v -0.965926 0.258819 0.250000
v -0.845185 0.226467 0.216506
v -0.756797 0.202783 0.125000
v -0.724444 0.194114 0.000000
v -0.756797 0.202783 -0.125000
v -0.845185 0.226467 -0.216506
v -0.965926 0.258819 -0.250000
v -1.086667 0.291171 -0.216506
v -1.175055 0.314855 -0.125000
v -1.239306 0.163158 0.000000
v -1.206099 0.158786 0.125000
v -1.115375 0.146842 0.216506
v -0.991445 0.130526 0.250000
v -0.867514 0.114210 0.216506
v -0.776791 0.102267 0.125000
v -0.743584 0.097895 0.000000
v -0.776791 0.102267 -0.125000
v -0.867514 0.114211 -0.216506
v -0.991445 0.130526 -0.250000
v -1.115375 0.146842 -0.216506
v -1.206099 0.158786 -0.125000
v -1.250000 0.000000 0.000000
v -1.216506 0.000000 0.125000
v -1.125000 0.000000 0.216506
v -1.000000 0.000000 0.250000
v -0.875000 0.000000 0.216506
v -0.783494 0.000000 0.125000
v -0.750000 0.000000 0.000000
v -0.783494 0.000000 -0.125000
v -0.875000 0.000000 -0.216506
v -1.000000 0.000000 -0.250000
v -1.125000 0.000000 -0.216506
v -1.216506 0.000000 -0.125000
v -1.239306 -0.163158 -0.000000
v -1.206099 -0.158786 0.125000
v -1.115375 -0.146842 0.216506
v -0.991445 -0.130526 0.250000
v -0.867514 -0.114211 0.216506
v -0.776791 -0.102267 0.125000
v -0.743584 -0.097895 -0.000000
v -0.776791 -0.102267 -0.125000
v -0.867514 -0.114210 -0.216506
v -0.991445 -0.130526 -0.250000
v -1.115375 -0.146842 -0.216506
v -1.206099 -0.158786 -0.125000
v -1.207407 -0.323524 -0.000000
v -1.175055 -0.314855 0.125000
v -1.086667 -0.291171 0.216506
v -0.965926 -0.258819 0.250000
v -0.845185 -0.226467 0.216506
v -0.756797 -0.202783 0.125000
v -0.724444 -0.194114 -0.000000
v -0.756797 -0.202783 -0.125000
v -0.845185 -0.226467 -0.216506
v -0.965926 -0.258819 -0.250000
v -1.086667 -0.291171 -0.216506
v -1.175055 -0.314855 -0.125000
v -1.154850 -0.478354 -0.000000
v -1.123906 -0.465536 0.125000
v -1.039365 -0.430518 0.216506
v -0.923880 -0.382683 0.250000
v -0.808395 -0.334848 0.216506
v -0.723854 -0.299830 0.125000
v -0.692910 -0.287012 -0.000000
v -0.723854 -0.299830 -0.125000
v -0.808395 -0.334848 -0.216506
v -0.923880 -0.382683 -0.250000
v -1.039365 -0.430518 -0.216506
v -1.123906 -0.465536 -0.125000
v -1.082532 -0.625000 -0.000000
v -1.053526 -0.608253 0.125000
v -0.974279 -0.562500 0.216506
v -0.866026 -0.500000 0.250000
v -0.757772 -0.437500 0.216506
v -0.678525 -0.391747 0.125000
v -0.649519 -0.375000 -0.000000
v -0.678525 -0.391747 -0.125000
v -0.757772 -0.437500 -0.216506
v -0.866026 -0.500000 -0.250000
v -0.974279 -0.562500 -0.216506
v -1.053526 -0.608253 -0.125000
v -0.991692 -0.760952 -0.000000
v -0.965119 -0.740562 0.125000
v -0.892522 -0.684857 0.216506
v -0.793353 -0.608761 0.250000
v -0.694184 -0.532666 0.216506
v -0.621587 -0.476961 0.125000
v -0.595015 -0.456571 -0.000000
v -0.621587 -0.476961 -0.125000
v -0.694184 -0.532666 -0.216506
v -0.793353 -0.608761 -0.250000
v -0.892522 -0.684857 -0.216506
v -0.965119 -0.740562 -0.125000
v -0.883884 -0.883883 -0.000000
v -0.860200 -0.860200 0.125000
v -0.795495 -0.795495 0.216506
v -0.707107 -0.707107 0.250000
v -0.618719 -0.618718 0.216506
v -0.554014 -0.554013 0.125000
v -0.530330 -0.530330 -0.000000
v -0.554014 -0.554013 -0.125000
v -0.618719 -0.618718 -0.216506
v -0.707107 -0.707107 -0.250000
v -0.795495 -0.795495 -0.216506
v -0.860200 -0.860200 -0.125000
v -0.760952 -0.991691 -0.000000
v -0.740563 -0.965119 0.125000
v -0.684857 -0.892522 0.216506
v -0.608762 -0.793353 0.250000
v -0.532667 -0.694184 0.216506
v -0.476961 -0.621587 0.125000
v -0.456571 -0.595015 -0.000000
v -0.476961 -0.621587 -0.125000
v -0.532667 -0.694184 -0.216506
v -0.608762 -0.793353 -0.250000
v -0.684857 -0.892522 -0.216506
v -0.740563 -0.965119 -0.125000
v -0.625000 -1.082532 -0.000000
v -0.608253 -1.053526 0.125000
v -0.562500 -0.974279 0.216506
v -0.500000 -0.866026 0.250000
v -0.437500 -0.757772 0.216506
v -0.391747 -0.678525 0.125000
v -0.375000 -0.649519 -0.000000
v -0.391747 -0.678525 -0.125000
v -0.437500 -0.757772 -0.216506
v -0.500000 -0.866025 -0.250000
v -0.562500 -0.974279 -0.216507
v -0.608253 -1.053526 -0.125000
v -0.478354 -1.154849 -0.000000
v -0.465537 -1.123905 0.125000
v -0.430519 -1.039364 0.216506
v -0.382684 -0.923880 0.250000
v -0.334848 -0.808395 0.216506
v -0.299830 -0.723854 0.125000
v -0.287013 -0.692910 -0.000000
v -0.299830 -0.723854 -0.125000
v -0.334848 -0.808394 -0.216506
v -0.382684 -0.923879 -0.250000
v -0.430519 -1.039364 -0.216507
v -0.465537 -1.123905 -0.125000
v -0.323524 -1.207407 -0.000000
v -0.314855 -1.175055 0.125000
v -0.291172 -1.086666 0.216506
v -0.258819 -0.965926 0.250000
v -0.226467 -0.845185 0.216506
v -0.202783 -0.756797 0.125000
v -0.194115 -0.724444 -0.000000
v -0.202783 -0.756797 -0.125000
v -0.226467 -0.845185 -0.216506
v -0.258819 -0.965926 -0.250000
v -0.291172 -1.086666 -0.216507
v -0.314855 -1.175055 -0.125000
v -0.163158 -1.239306 -0.000000
v -0.158787 -1.206099 0.125000
v -0.146843 -1.115375 0.216506
v -0.130527 -0.991445 0.250000
v -0.114211 -0.867514 0.216506
v -0.102267 -0.776791 0.125000
v -0.097895 -0.743584 -0.000000
v -0.102267 -0.776791 -0.125000
v -0.114211 -0.867514 -0.216506
v -0.130527 -0.991445 -0.250000
v -0.146843 -1.115375 -0.216507
v -0.158787 -1.206099 -0.125000
v 0.000000 -1.250000 -0.000000
v 0.000000 -1.216506 0.125000
v 0.000000 -1.125000 0.216506
v 0.000000 -1.000000 0.250000
v 0.000000 -0.875000 0.216506
v 0.000000 -0.783494 0.125000
v 0.000000 -0.750000 -0.000000
v 0.000000 -0.783494 -0.125000
v 0.000000 -0.875000 -0.216506
v 0.000000 -1.000000 -0.250000
v 0.000000 -1.125000 -0.216507
v 0.000000 -1.216506 -0.125000
v 0.163158 -1.239306 -0.000000
v 0.158786 -1.206099 0.125000
v 0.146842 -1.115376 0.216506
v 0.130526 -0.991445 0.250000
v 0.114210 -0.867514 0.216506
v 0.102266 -0.776791 0.125000
v 0.097895 -0.743584 -0.000000
v 0.102266 -0.776791 -0.125000
v 0.114210 -0.867514 -0.216506
v 0.130526 -0.991445 -0.250000
v 0.146842 -1.115376 -0.216507
v 0.158786 -1.206099 -0.125000
v 0.323523 -1.207407 -0.000000
v 0.314854 -1.175055 0.125000
v 0.291171 -1.086667 0.216506
v 0.258819 -0.965926 0.250000
v 0.226466 -0.845185 0.216506
v 0.202783 -0.756797 0.125000
v 0.194114 -0.724444 -0.000000
v 0.202783 -0.756797 -0.125000
v 0.226466 -0.845185 -0.216506
v 0.258819 -0.965926 -0.250000
v 0.291171 -1.086667 -0.216507
v 0.314854 -1.175055 -0.125000
v 0.478355 -1.154849 -0.000000
v 0.465537 -1.123905 0.125000
v 0.430519 -1.039364 0.216506
v 0.382684 -0.923880 0.250000
v 0.334848 -0.808395 0.216506
v 0.299830 -0.723854 0.125000
v 0.287013 -0.692910 -0.000000
v 0.299830 -0.723854 -0.125000
v 0.334848 -0.808394 -0.216506
v 0.382684 -0.923879 -0.250000
v 0.430519 -1.039364 -0.216507
v 0.465537 -1.123905 -0.125000
v 0.625000 -1.082532 -0.000000
v 0.608253 -1.053525 0.125000
v 0.562500 -0.974279 0.216506
v 0.500000 -0.866026 0.250000
v 0.437500 -0.757772 0.216506
v 0.391747 -0.678525 0.125000
v 0.375000 -0.649519 -0.000000
v 0.391747 -0.678525 -0.125000
v 0.437500 -0.757772 -0.216506
v 0.500000 -0.866025 -0.250000
v 0.562500 -0.974279 -0.216507
v 0.608253 -1.053525 -0.125000
v 0.760952 -0.991692 -0.000000
v 0.740562 -0.965120 0.125000
v 0.684856 -0.892523 0.216506
v 0.608761 -0.793354 0.250000
v 0.532666 -0.694184 0.216506
v 0.476961 -0.621587 0.125000
v 0.456571 -0.595015 -0.000000
v 0.476961 -0.621587 -0.125000
v 0.532666 -0.694184 -0.216506
v 0.608761 -0.793353 -0.250000
v 0.684856 -0.892523 -0.216506
v 0.740562 -0.965120 -0.125000
v 0.883883 -0.883884 -0.000000
v 0.860199 -0.860200 0.125000
v 0.795495 -0.795496 0.216506
v 0.707106 -0.707107 0.250000
v 0.618718 -0.618719 0.216506
v 0.554013 -0.554014 0.125000
v 0.530330 -0.530330 -0.000000
v 0.554013 -0.554014 -0.125000
v 0.618718 -0.618719 -0.216506
v 0.707106 -0.707107 -0.250000
v 0.795495 -0.795496 -0.216506
v 0.860199 -0.860200 -0.125000
v 0.991692 -0.760952 -0.000000
v 0.965119 -0.740562 0.125000
v 0.892523 -0.684857 0.216506
v 0.793353 -0.608761 0.250000
v 0.694184 -0.532666 0.216506
v 0.621587 -0.476961 0.125000
v 0.595015 -0.456571 -0.000000
v 0.621587 -0.476961 -0.125000
v 0.694184 -0.532666 -0.216506
v 0.793353 -0.608761 -0.250000
v 0.892523 -0.684856 -0.216506
v 0.965119 -0.740562 -0.125000
v 1.082532 -0.625000 -0.000000
v 1.053525 -0.608253 0.125000
v 0.974279 -0.562500 0.216506
v 0.866025 -0.500000 0.250000
v 0.757772 -0.437500 0.216506
v 0.678525 -0.391747 0.125000
v 0.649519 -0.375000 -0.000000
v 0.678525 -0.391747 -0.125000
v 0.757772 -0.437500 -0.216506
v 0.866025 -0.500000 -0.250000
v 0.974279 -0.562500 -0.216506
v 1.053525 -0.608253 -0.125000
v 1.154849 -0.478355 -0.000000
v 1.123905 -0.465537 0.125000
v 1.039364 -0.430519 0.216506
v 0.923879 -0.382684 0.250000
v 0.808394 -0.334848 0.216506
v 0.723854 -0.299830 0.125000
v 0.692910 -0.287013 -0.000000
v 0.723854 -0.299830 -0.125000
v 0.808394 -0.334848 -0.216506
v 0.923879 -0.382684 -0.250000
v 1.039364 -0.430519 -0.216506
v 1.123905 -0.465537 -0.125000
v 1.207407 -0.323523 -0.000000
v 1.175055 -0.314855 0.125000
v 1.086667 -0.291171 0.216506
v 0.965926 -0.258819 0.250000
v 0.845185 -0.226466 0.216506
v 0.756797 -0.202783 0.125000
v 0.724444 -0.194114 -0.000000
v 0.756797 -0.202783 -0.125000
v 0.845185 -0.226466 -0.216506
v 0.965926 -0.258819 -0.250000
v 1.086667 -0.291171 -0.216506
v 1.175055 -0.314855 -0.125000
v 1.239306 -0.163158 -0.000000
v 1.206099 -0.158786 0.125000
v 1.115376 -0.146842 0.216506
v 0.991445 -0.130526 0.250000
v 0.867514 -0.114210 0.216506
v 0.776791 -0.102266 0.125000
v 0.743584 -0.097895 -0.000000
v 0.776791 -0.102266 -0.125000
v 0.867514 -0.114210 -0.216506
v 0.991445 -0.130526 -0.250000
v 1.115376 -0.146842 -0.216506
v 1.206099 -0.158786 -0.125000
vt 0.500000 0.500000
vt 0.583333 0.500000
vt 0.583333 0.583333
vt 0.500000 0.583333
vt 0.583333 0.666667
vt 0.500000 0.666667
vt 0.583333 0.750000
vt 0.500000 0.750000
vt 0.583333 0.833333
vt 0.500000 0.833333
vt 0.583333 0.916667
vt 0.500000 0.916667
vt 0.583333 1.000000
vt 0.500000 1.000000
vt 0.500000 0.000000
vt 0.583333 0.000000
vt 0.583333 0.083333
vt 0.500000 0.083333
vt 0.583333 0.166667
vt 0.500000 0.166667
vt 0.583333 0.250000
vt 0.500000 0.250000
vt 0.583333 0.333333
vt 0.500000 0.333333
vt 0.583333 0.416667
vt 0.500000 0.416667
vt 0.666667 0.500000
vt 0.666667 0.583333
vt 0.666667 0.666667
vt 0.666667 0.750000
vt 0.666667 0.833333
vt 0.666667 0.916667
vt 0.666667 1.000000
vt 0.666667 0.000000
vt 0.666667 0.083333
vt 0.666667 0.166667
vt 0.666667 0.250000
vt 0.666667 0.333333
vt 0.666667 0.416667
vt 0.750000 0.500000
vt 0.750000 0.583333
vt 0.750000 0.666667
vt 0.750000 0.750000
vt 0.750000 0.833333
vt 0.750000 0.916667
vt 0.750000 1.000000
vt 0.750000 0.000000
vt 0.750000 0.083333
vt 0.750000 0.166667
vt 0.750000 0.250000
vt 0.750000 0.333333
vt 0.750000 0.416667
vt 0.833333 0.500000
vt 0.833333 0.583333
vt 0.833333 0.666667
vt 0.833333 0.750000
vt 0.833333 0.833333
vt 0.833333 0.916667
vt 0.833333 1.000000
vt 0.833333 0.000000
vt 0.833333 0.083333
vt 0.833333 0.166667
vt 0.833333 0.250000
vt 0.833333 0.333333
vt 0.833333 0.416667
vt 0.916667 0.500000
vt 0.916667 0.583333
vt 0.916667 0.666667
vt 0.916667 0.750000
vt 0.916667 0.833333
vt 0.916667 0.916667
vt 0.916667 1.000000
vt 0.916667 0.000000
vt 0.916667 0.083333
vt 0.916667 0.166667
vt 0.916667 0.250000
vt 0.916667 0.333333
vt 0.916667 0.416667
vt 1.000000 0.500000
vt 1.000000 0.583333
vt 1.000000 0.666667
vt 1.000000 0.750000
vt 1.000000 0.833333
vt 1.000000 0.916667
vt 1.000000 1.000000
vt 1.000000 0.000000
vt 1.000000 0.083333
vt 1.000000 0.166667
vt 1.000000 0.250000
vt 1.000000 0.333333
vt 1.000000 0.416667
vt 1.083333 0.500000
vt 1.083333 0.583333
vt 1.083333 0.666667
vt 1.083333 0.750000
vt 1.083333 0.833333
vt 1.083333 0.916667
vt 1.083333 1.000000
vt 1.083333 0.000000
vt 1.083333 0.083333
vt 1.083333 0.166667
vt 1.083333 0.250000
vt 1.083333 0.333333
vt 1.083333 0.416667
vt 1.166667 0.500000
vt 1.166667 0.583333
vt 1.166667 0.666667
vt 1.166667 0.750000
vt 1.166667 0.833333
vt 1.166667 0.916667
vt 1.166667 1.000000
vt 1.166667 0.000000
vt 1.166667 0.083333
vt 1.166667 0.166667
vt 1.166667 0.250000
vt 1.166667 0.333333
vt 1.166667 0.416667
vt 1.250000 0.500000
vt 1.250000 0.583333
vt 1.250000 0.666667
vt 1.250000 0.750000
vt 1.250000 0.833333
vt 1.250000 0.916667
vt 1.250000 1.000000
vt 1.250000 0.000000
vt 1.250000 0.083333
vt 1.250000 0.166667
vt 1.250000 0.250000
vt 1.250000 0.333333
vt 1.250000 0.416667
vt 1.333333 0.500000
vt 1.333333 0.583333
vt 1.333333 0.666667
vt 1.333333 0.750000
vt 1.333333 0.833333
vt 1.333333 0.916667
vt 1.333333 1.000000
vt 1.333333 0.000000
vt 1.333333 0.083333
vt 1.333333 0.166667
vt 1.333333 0.250000
vt 1.333333 0.333333
vt 1.333333 0.416667
vt 1.416667 0.500000
vt 1.416667 0.583333
vt 1.416667 0.666667
vt 1.416667 0.750000
vt 1.416667 0.833333
vt 1.416667 0.916667
vt 1.416667 1.000000
vt 1.416667 0.000000
vt 1.416667 0.083333
vt 1.416667 0.166667
vt 1.416667 0.250000
vt 1.416667 0.333333
vt 1.416667 0.416667
vt 1.500000 0.500000
vt 1.500000 0.583333
vt 1.500000 0.666667
vt 1.500000 0.750000
vt 1.500000 0.833333
vt 1.500000 0.916667
vt 1.500000 1.000000
vt 1.500000 0.000000
vt 1.500000 0.083333
vt 1.500000 0.166667
vt 1.500000 0.250000
vt 1.500000 0.333333
vt 1.500000 0.416667
vt 1.583333 0.500000
vt 1.583333 0.583333
vt 1.583333 0.666667
vt 1.583333 0.750000
vt 1.583333 0.833333
vt 1.583333 0.916667
vt 1.583333 1.000000
vt 1.583333 0.000000
vt 1.583333 0.083333
vt 1.583333 0.166667
vt 1.583333 0.250000
vt 1.583333 0.333333
vt 1.583333 0.416667
vt 1.666667 0.500000
vt 1.666667 0.583333
vt 1.666667 0.666667
vt 1.666667 0.750000
vt 1.666667 0.833333
vt 1.666667 0.916667
vt 1.666667 1.000000
vt 1.666667 0.000000
vt 1.666667 0.083333
vt 1.666667 0.166667
vt 1.666667 0.250000
vt 1.666667 0.333333
vt 1.666667 0.416667
vt 1.750000 0.500000
vt 1.750000 0.583333
vt 1.750000 0.666667
vt 1.750000 0.750000
vt 1.750000 0.833333
vt 1.750000 0.916667
vt 1.750000 1.000000
vt 1.750000 0.000000
vt 1.750000 0.083333
vt 1.750000 0.166667
vt 1.750000 0.250000
vt 1.750000 0.333333
vt 1.750000 0.416667
vt 1.833333 0.500000
vt 1.833333 0.583333
vt 1.833333 0.666667
vt 1.833333 0.750000
vt 1.833333 0.833333
vt 1.833333 0.916667
vt 1.833333 1.000000
vt 1.833333 0.000000
vt 1.833333 0.083333
vt 1.833333 0.166667
vt 1.833333 0.250000
vt 1.833333 0.333333
vt 1.833333 0.416667
vt 1.916667 0.500000
vt 1.916667 0.583333
vt 1.916667 0.666667
vt 1.916667 0.750000
vt 1.916667 0.833333
vt 1.916667 0.916667
vt 1.916667 1.000000
vt 1.916667 0.000000
vt 1.916667 0.083333
vt 1.916667 0.166667
vt 1.916667 0.250000
vt 1.916667 0.333333
vt 1.916667 0.416667
vt 2.000000 0.500000
vt 2.000000 0.583333
vt 2.000000 0.666667
vt 2.000000 0.750000
vt 2.000000 0.833333
vt 2.000000 0.916667
vt 2.000000 1.000000
vt 2.000000 0.000000
vt 2.000000 0.083333
vt 2.000000 0.166667
vt 2.000000 0.250000
vt 2.000000 0.333333
vt 2.000000 0.416667
vt 2.083333 0.500000
vt 2.083333 0.583333
vt 2.083333 0.666667
vt 2.083333 0.750000
vt 2.083333 0.833333
vt 2.083333 0.916667
vt 2.083333 1.000000
vt 2.083333 0.000000
vt 2.083333 0.083333
vt 2.083333 0.166667
vt 2.083333 0.250000
vt 2.083333 0.333333
vt 2.083333 0.416667
vt 2.166667 0.500000
vt 2.166667 0.583333
vt 2.166667 0.666667
vt 2.166667 0.750000
vt 2.166667 0.833333
vt 2.166667 0.916667
vt 2.166667 1.000000
vt 2.166667 0.000000
vt 2.166667 0.083333
vt 2.166667 0.166667
vt 2.166667 0.250000
vt 2.166667 0.333333
vt 2.166667 0.416667
vt 2.250000 0.500000
vt 2.250000 0.583333
vt 2.250000 0.666667
vt 2.250000 0.750000
vt 2.250000 0.833333
vt 2.250000 0.916667
vt 2.250000 1.000000
vt 2.250000 0.000000
vt 2.250000 0.083333
vt 2.250000 0.166667
vt 2.250000 0.250000
vt 2.250000 0.333333
vt 2.250000 0.416667
vt 2.333333 0.500000
vt 2.333333 0.583333
vt 2.333333 0.666667
vt 2.333333 0.750000
vt 2.333333 0.833333
vt 2.333333 0.916667
vt 2.333333 1.000000
vt 2.333333 0.000000
vt 2.333333 0.083333
vt 2.333333 0.166667
vt 2.333333 0.250000
vt 2.333333 0.333333
vt 2.333333 0.416667
vt 2.416667 0.500000
vt 2.416667 0.583333
vt 2.416667 0.666667
vt 2.416667 0.750000
vt 2.416667 0.833333
vt 2.416667 0.916667
vt 2.416667 1.000000
vt 2.416667 0.000000
vt 2.416667 0.083333
vt 2.416667 0.166667
vt 2.416667 0.250000
vt 2.416667 0.333333
vt 2.416667 0.416667
vt 2.500000 0.500000
vt 2.500000 0.583333
vt 2.500000 0.666667
vt 2.500000 0.750000
vt 2.500000 0.833333
vt 2.500000 0.916667
vt 2.500000 1.000000
vt 2.500000 0.000000
vt 2.500000 0.083333
vt 2.500000 0.166667
vt 2.500000 0.250000
vt 2.500000 0.333333
vt 2.500000 0.416667
vt -1.500000 0.500000
vt -1.416667 0.500000
vt -1.416667 0.583333
vt -1.500000 0.583333
vt -1.416667 0.666667
vt -1.500000 0.666667
vt -1.416667 0.750000
vt -1.500000 0.750000
vt -1.416667 0.833333
vt -1.500000 0.833333
vt -1.416667 0.916667
vt -1.500000 0.916667
vt -1.416667 1.000000
vt -1.500000 1.000000
vt -1.500000 0.000000
vt -1.416667 0.000000
vt -1.416667 0.083333
vt -1.500000 0.083333
vt -1.416667 0.166667
vt -1.500000 0.166667
vt -1.416667 0.250000
vt -1.500000 0.250000
vt -1.416667 0.333333
vt -1.500000 0.333333
vt -1.416667 0.416667
vt -1.500000 0.416667
vt -1.333333 0.500000
vt -1.333333 0.583333
vt -1.333333 0.666667
vt -1.333333 0.750000
vt -1.333333 0.833333
vt -1.333333 0.916667
vt -1.333333 1.000000
vt -1.333333 0.000000
vt -1.333333 0.083333
vt -1.333333 0.166667
vt -1.333333 0.250000
vt -1.333333 0.333333
vt -1.333333 0.416667
vt -1.250000 0.500000
vt -1.250000 0.583333
vt -1.250000 0.666667
vt -1.250000 0.750000
vt -1.250000 0.833333
vt -1.250000 0.916667
vt -1.250000 1.000000
vt -1.250000 0.000000
vt -1.250000 0.083333
vt -1.250000 0.166667
vt -1.250000 0.250000
vt -1.250000 0.333333
vt -1.250000 0.416667
vt -1.166667 0.500000
vt -1.166667 0.583333
vt -1.166667 0.666667
vt -1.166667 0.750000
vt -1.166667 0.833333
vt -1.166667 0.916667
vt -1.166667 1.000000
vt -1.166667 0.000000
vt -1.166667 0.083333
vt -1.166667 0.166667
vt -1.166667 0.250000
vt -1.166667 0.333333
vt -1.166667 0.416667
vt -1.083333 0.500000
vt -1.083333 0.583333
vt -1.083333 0.666667
vt -1.083333 0.750000
vt -1.083333 0.833333
vt -1.083333 0.916667
vt -1.083333 1.000000
vt -1.083333 0.000000
vt -1.083333 0.083333
vt -1.083333 0.166667
vt -1.083333 0.250000
vt -1.083333 0.333333
vt -1.083333 0.416667
vt -1.000000 0.500000
vt -1.000000 0.583333
vt -1.000000 0.666667
vt -1.000000 0.750000
vt -1.000000 0.833333
vt -1.000000 0.916667
vt -1.000000 1.000000
vt -1.000000 0.000000
vt -1.000000 0.083333
vt -1.000000 0.166667
vt -1.000000 0.250000
vt -1.000000 0.333333
vt -1.000000 0.416667
vt -0.916667 0.500000
vt -0.916667 0.583333
vt -0.916667 0.666667
vt -0.916667 0.750000
vt -0.916667 0.833333
vt -0.916667 0.916667
vt -0.916667 1.000000
vt -0.916667 0.000000
vt -0.916667 0.083333
vt -0.916667 0.166667
vt -0.916667 0.250000
vt -0.916667 0.333333
vt -0.916667 0.416667
vt -0.833333 0.500000
vt -0.833333 0.583333
vt -0.833333 0.666667
vt -0.833333 0.750000
vt -0.833333 0.833333
vt -0.833333 0.916667
vt -0.833333 1.000000
vt -0.833333 0.000000
vt -0.833333 0.083333
vt -0.833333 0.166667
vt -0.833333 0.250000
vt -0.833333 0.333333
vt -0.833333 0.416667
vt -0.750000 0.500000
vt -0.750000 0.583333
vt -0.750000 0.666667
vt -0.750000 0.750000
vt -0.750000 0.833333
vt -0.750000 0.916667
vt -0.750000 1.000000
vt -0.750000 0.000000
vt -0.750000 0.083333
vt -0.750000 0.166667
vt -0.750000 0.250000
vt -0.750000 0.333333
vt -0.750000 0.416667
vt -0.666667 0.500000
vt -0.666667 0.583333
vt -0.666667 0.666667
vt -0.666667 0.750000
vt -0.666667 0.833333
vt -0.666667 0.916667
vt -0.666667 1.000000
vt -0.666667 0.000000
vt -0.666667 0.083333
vt -0.666667 0.166667
vt -0.666667 0.250000
vt -0.666667 0.333333
vt -0.666667 0.416667
vt -0.583333 0.500000
vt -0.583333 0.583333
vt -0.583333 0.666667
vt -0.583333 0.750000
vt -0.583333 0.833333
vt -0.583333 0.916667
vt -0.583333 1.000000
vt -0.583333 0.000000
vt -0.583333 0.083333
vt -0.583333 0.166667
vt -0.583333 0.250000
vt -0.583333 0.333333
vt -0.583333 0.416667
vt -0.500000 0.500000
vt -0.500000 0.583333
vt -0.500000 0.666667
vt -0.500000 0.750000
vt -0.500000 0.833333
vt -0.500000 0.916667
vt -0.500000 1.000000
vt -0.500000 0.000000
vt -0.500000 0.083333
vt -0.500000 0.166667
vt -0.500000 0.250000
vt -0.500000 0.333333
vt -0.500000 0.416667
vt -0.416667 0.500000
vt -0.416667 0.583333
vt -0.416667 0.666667
vt -0.416667 0.750000
vt -0.416667 0.833333
vt -0.416667 0.916667
vt -0.416667 1.000000
vt -0.416667 0.000000
vt -0.416667 0.083333
vt -0.416667 0.166667
vt -0.416667 0.250000
vt -0.416667 0.333333
vt -0.416667 0.416667
vt -0.333333 0.500000
vt -0.333333 0.583333
vt -0.333333 0.666667
vt -0.333333 0.750000
vt -0.333333 0.833333
vt -0.333333 0.916667
vt -0.333333 1.000000
vt -0.333333 0.000000
vt -0.333333 0.083333
vt -0.333333 0.166667
vt -0.333333 0.250000
vt -0.333333 0.333333
vt -0.333333 0.416667
vt -0.250000 0.500000
vt -0.250000 0.583333
vt -0.250000 0.666667
vt -0.250000 0.750000
vt -0.250000 0.833333
vt -0.250000 0.916667
vt -0.250000 1.000000
vt -0.250000 0.000000
vt -0.250000 0.083333
vt -0.250000 0.166667
vt -0.250000 0.250000
vt -0.250000 0.333333
vt -0.250000 0.416667
vt -0.166667 0.500000
vt -0.166667 0.583333
vt -0.166667 0.666667
vt -0.166667 0.750000
vt -0.166667 0.833333
vt -0.166667 0.916667
vt -0.166667 1.000000
vt -0.166667 0.000000
vt -0.166667 0.083333
vt -0.166667 0.166667
vt -0.166667 0.250000
vt -0.166667 0.333333
vt -0.166667 0.416667
vt -0.083333 0.500000
vt -0.083333 0.583333
vt -0.083333 0.666667
vt -0.083333 0.750000
vt -0.083333 0.833333
vt -0.083333 0.916667
vt -0.083333 1.000000
vt -0.083333 0.000000
vt -0.083333 0.083333
vt -0.083333 0.166667
vt -0.083333 0.250000
vt -0.083333 0.333333
vt -0.083333 0.416667
vt 0.000000 0.500000
vt 0.000000 0.583333
vt 0.000000 0.666667
vt 0.000000 0.750000
vt 0.000000 0.833333
vt 0.000000 0.916667
vt 0.000000 1.000000
vt 0.000000 0.000000
vt 0.000000 0.083333
vt 0.000000 0.166667
vt 0.000000 0.250000
vt 0.000000 0.333333
vt 0.000000 0.416667
vt 0.083333 0.500000
vt 0.083333 0.583333
vt 0.083333 0.666667
vt 0.083333 0.750000
vt 0.083333 0.833333
vt 0.083333 0.916667
vt 0.083333 1.000000
vt 0.083333 0.000000
vt 0.083333 0.083333
vt 0.083333 0.166667
vt 0.083333 0.250000
vt 0.083333 0.333333
vt 0.083333 0.416667
vt 0.166667 0.500000
vt 0.166667 0.583333
vt 0.166667 0.666667
vt 0.166667 0.750000
vt 0.166667 0.833333
vt 0.166667 0.916667
vt 0.166667 1.000000
vt 0.166667 0.000000
vt 0.166667 0.083333
vt 0.166667 0.166667
vt 0.166667 0.250000
vt 0.166667 0.333333
vt 0.166667 0.416667
vt 0.250000 0.500000
vt 0.250000 0.583333
vt 0.250000 0.666667
vt 0.250000 0.750000
vt 0.250000 0.833333
vt 0.250000 0.916667
vt 0.250000 1.000000
vt 0.250000 0.000000
vt 0.250000 0.083333
vt 0.250000 0.166667
vt 0.250000 0.250000
vt 0.250000 0.333333
vt 0.250000 0.416667
vt 0.333333 0.500000
vt 0.333333 0.583333
vt 0.333333 0.666667
vt 0.333333 0.750000
vt 0.333333 0.833333
vt 0.333333 0.916667
vt 0.333333 1.000000
vt 0.333333 0.000000
vt 0.333333 0.083333
vt 0.333333 0.166667
vt 0.333333 0.250000
vt 0.333333 0.333333
vt 0.333333 0.416667
vt 0.416667 0.500000
vt 0.416667 0.583333
vt 0.416667 0.666667
vt 0.416667 0.750000
vt 0.416667 0.833333
vt 0.416667 0.916667
vt 0.416667 1.000000
vt 0.416667 0.000000
vt 0.416667 0.083333
vt 0.416667 0.166667
vt 0.416667 0.250000
vt 0.416667 0.333333
vt 0.416667 0.416667
vn 1.0000 0.0000 0.0000
vn 0.9914 0.1305 0.0000
vn 0.8612 0.1134 0.4954
vn 0.8686 0.0000 0.4954
vn 0.5036 0.0663 0.8614
vn 0.5080 0.0000 0.8614
vn 0.0107 0.0014 0.9999
vn 0.0108 0.0000 0.9999
vn -0.4876 -0.0642 0.8707
vn -0.4918 0.0000 0.8707
vn -0.8559 -0.1127 0.5047
vn -0.8633 0.0000 0.5047
vn -0.9914 -0.1305 0.0000
vn -1.0000 0.0000 0.0000
vn -0.8559 -0.1127 -0.5047
vn -0.8633 0.0000 -0.5047
vn -0.4876 -0.0642 -0.8707
vn -0.4918 0.0000 -0.8707
vn 0.0107 0.0014 -0.9999
vn 0.0108 0.0000 -0.9999
vn 0.5036 0.0663 -0.8614
vn 0.5080 0.0000 -0.8614
vn 0.8612 0.1134 -0.4954
vn 0.8686 0.0000 -0.4954
vn 0.9659 0.2588 0.0000
vn 0.8390 0.2248 0.4954
vn 0.4907 0.1315 0.8614
vn 0.0104 0.0028 0.9999
vn -0.4751 -0.1273 0.8707
vn -0.8339 -0.2234 0.5047
vn -0.9659 -0.2588 0.0000
vn -0.8339 -0.2234 -0.5047
vn -0.4751 -0.1273 -0.8707
vn 0.0104 0.0028 -0.9999
vn 0.4907 0.1315 -0.8614
vn 0.8390 0.2248 -0.4954
vn 0.9239 0.3827 0.0000
vn 0.8025 0.3324 0.4954
vn 0.4693 0.1944 0.8614
vn 0.0099 0.0041 0.9999
vn -0.4544 -0.1882 0.8707
vn -0.7975 -0.3304 0.5047
vn -0.9239 -0.3827 0.0000
vn -0.7975 -0.3304 -0.5047
vn -0.4544 -0.1882 -0.8707
vn 0.0099 0.0041 -0.9999
vn 0.4693 0.1944 -0.8614
vn 0.8025 0.3324 -0.4954
vn 0.8660 0.5000 0.0000
vn 0.7523 0.4343 0.4954
vn 0.4399 0.2540 0.8614
vn 0.0093 0.0054 0.9999
vn -0.4259 -0.2459 0.8707
vn -0.7476 -0.4316 0.5047
vn -0.8660 -0.5000 0.0000
vn -0.7476 -0.4316 -0.5047
vn -0.4259 -0.2459 -0.8707
vn 0.0093 0.0054 -0.9999
vn 0.4399 0.2540 -0.8614
vn 0.7523 0.4343 -0.4954
vn 0.7933 0.6088 0.0000
vn 0.6891 0.5288 0.4954
vn 0.4030 0.3092 0.8614
vn 0.0085 0.0066 0.9999
vn -0.3902 -0.2994 0.8707
vn -0.6849 -0.5255 0.5047
vn -0.7933 -0.6088 0.0000
vn -0.6849 -0.5255 -0.5047
vn -0.3902 -0.2994 -0.8707
vn 0.0085 0.0066 -0.9999
vn 0.4030 0.3092 -0.8614
vn 0.6891 0.5288 -0.4954
vn 0.7071 0.7071 0.0000
vn 0.6142 0.6142 0.4954
vn 0.3592 0.3592 0.8614
vn 0.0076 0.0076 0.9999
vn -0.3478 -0.3478 0.8707
vn -0.6104 -0.6104 0.5047
vn -0.7071 -0.7071 0.0000
vn -0.6104 -0.6104 -0.5047
vn -0.3478 -0.3478 -0.8707
vn 0.0076 0.0076 -0.9999
vn 0.3592 0.3592 -0.8614
vn 0.6142 0.6142 -0.4954
vn 0.6088 0.7933 0.0000
vn 0.5288 0.6891 0.4954
vn 0.3092 0.4030 0.8614
vn 0.0066 0.0085 0.9999
vn -0.2994 -0.3902 0.8707
vn -0.5255 -0.6849 0.5047
vn -0.6088 -0.7933 0.0000
vn -0.5255 -0.6849 -0.5047
vn -0.2994 -0.3902 -0.8707
vn 0.0066 0.0085 -0.9999
vn 0.3092 0.4030 -0.8614
vn 0.5288 0.6891 -0.4954
vn 0.5000 0.8660 0.0000
vn 0.4343 0.7523 0.4954
vn 0.2540 0.4399 0.8614
vn 0.0054 0.0093 0.9999
vn -0.2459 -0.4259 0.8707
vn -0.4316 -0.7476 0.5047
vn -0.5000 -0.8660 0.0000
vn -0.4316 -0.7476 -0.5047
vn -0.2459 -0.4259 -0.8707
vn 0.0054 0.0093 -0.9999
vn 0.2540 0.4399 -0.8614
vn 0.4343 0.7523 -0.4954
vn 0.3827 0.9239 0.0000
vn 0.3324 0.8025 0.4954
vn 0.1944 0.4693 0.8614
vn 0.0041 0.0099 0.9999
vn -0.1882 -0.4544 0.8707
vn -0.3304 -0.7975 0.5047
vn -0.3827 -0.9239 0.0000
vn -0.3304 -0.7975 -0.5047
vn -0.1882 -0.4544 -0.8707
vn 0.0041 0.0099 -0.9999
vn 0.1944 0.4693 -0.8614
vn 0.3324 0.8025 -0.4954
vn 0.2588 0.9659 0.0000
vn 0.2248 0.8390 0.4954
vn 0.1315 0.4907 0.8614
vn 0.0028 0.0104 0.9999
vn -0.1273 -0.4751 0.8707
vn -0.2234 -0.8339 0.5047
vn -0.2588 -0.9659 0.0000
vn -0.2234 -0.8339 -0.5047
vn -0.1273 -0.4751 -0.8707
vn 0.0028 0.0104 -0.9999
vn 0.1315 0.4907 -0.8614
vn 0.2248 0.8390 -0.4954
vn 0.1305 0.9914 0.0000
vn 0.1134 0.8612 0.4954
vn 0.0663 0.5036 0.8614
vn 0.0014 0.0107 0.9999
vn -0.0642 -0.4876 0.8707
vn -0.1127 -0.8559 0.5047
vn -0.1305 -0.9914 0.0000
vn -0.1127 -0.8559 -0.5047
vn -0.0642 -0.4876 -0.8707
vn 0.0014 0.0107 -0.9999
vn 0.0663 0.5036 -0.8614
vn 0.1134 0.8612 -0.4954
vn 0.0000 1.0000 0.0000
vn 0.0000 0.8686 0.4954
vn 0.0000 0.5080 0.8614
vn 0.0000 0.0108 0.9999
vn 0.0000 -0.4918 0.8707
vn 0.0000 -0.8633 0.5047
vn 0.0000 -1.0000 0.0000
vn 0.0000 -0.8633 -0.5047
vn 0.0000 -0.4918 -0.8707
vn 0.0000 0.0108 -0.9999
vn 0.0000 0.5080 -0.8614
vn 0.0000 0.8686 -0.4954
vn -0.1305 0.9914 0.0000
vn -0.1134 0.8612 0.4954
vn -0.0663 0.5036 0.8614
vn -0.0014 0.0107 0.9999
vn 0.0642 -0.4876 0.8707
vn 0.1127 -0.8559 0.5047
vn 0.1305 -0.9914 0.0000
vn 0.1127 -0.8559 -0.5047
vn 0.0642 -0.4876 -0.8707
vn -0.0014 0.0107 -0.9999
vn -0.0663 0.5036 -0.8614
vn -0.1134 0.8612 -0.4954
vn -0.2588 0.9659 0.0000
vn -0.2248 0.8390 0.4954
vn -0.1315 0.4907 0.8614
vn -0.0028 0.0104 0.9999
vn 0.1273 -0.4751 0.8707
vn 0.2234 -0.8339 0.5047
vn 0.2588 -0.9659 0.0000
vn 0.2234 -0.8339 -0.5047
vn 0.1273 -0.4751 -0.8707
vn -0.0028 0.0104 -0.9999
vn -0.1315 0.4907 -0.8614
vn -0.2248 0.8390 -0.4954
vn -0.3827 0.9239 0.0000
vn -0.3324 0.8025 0.4954
vn -0.1944 0.4693 0.8614
vn -0.0041 0.0099 0.9999
vn 0.1882 -0.4544 0.8707
vn 0.3304 -0.7975 0.5047
vn 0.3827 -0.9239 0.0000
vn 0.3304 -0.7975 -0.5047
vn 0.1882 -0.4544 -0.8707
vn -0.0041 0.0099 -0.9999
vn -0.1944 0.4693 -0.8614
vn -0.3324 0.8025 -0.4954
vn -0.5000 0.8660 0.0000
vn -0.4343 0.7523 0.4954
vn -0.2540 0.4399 0.8614
vn -0.0054 0.0093 0.9999
vn 0.2459 -0.4259 0.8707
vn 0.4316 -0.7476 0.5047
vn 0.5000 -0.8660 0.0000
vn 0.4316 -0.7476 -0.5047
vn 0.2459 -0.4259 -0.8707
vn -0.0054 0.0093 -0.9999
vn -0.2540 0.4399 -0.8614
vn -0.4343 0.7523 -0.4954
vn -0.6088 0.7933 0.0000
vn -0.5288 0.6891 0.4954
vn -0.3092 0.4030 0.8614
vn -0.0066 0.0085 0.9999
vn 0.2994 -0.3902 0.8707
vn 0.5255 -0.6849 0.5047
vn 0.6088 -0.7933 0.0000
vn 0.5255 -0.6849 -0.5047
vn 0.2994 -0.3902 -0.8707
vn -0.0066 0.0085 -0.9999
vn -0.3092 0.4030 -0.8614
vn -0.5288 0.6891 -0.4954
vn -0.7071 0.7071 0.0000
vn -0.6142 0.6142 0.4954
vn -0.3592 0.3592 0.8614
vn -0.0076 0.0076 0.9999
vn 0.3478 -0.3478 0.8707
vn 0.6104 -0.6104 0.5047
vn 0.7071 -0.7071 0.0000
vn 0.6104 -0.6104 -0.5047
vn 0.3478 -0.3478 -0.8707
vn -0.0076 0.0076 -0.9999
vn -0.3592 0.3592 -0.8614
vn -0.6142 0.6142 -0.4954
vn -0.7933 0.6088 0.0000
vn -0.6891 0.5288 0.4954
vn -0.4030 0.3092 0.8614
vn -0.0085 0.0066 0.9999
vn 0.3902 -0.2994 0.8707
vn 0.6849 -0.5255 0.5047
vn 0.7933 -0.6088 0.0000
vn 0.6849 -0.5255 -0.5047
vn 0.3902 -0.2994 -0.8707
vn -0.0085 0.0066 -0.9999
vn -0.4030 0.3092 -0.8614
vn -0.6891 0.5288 -0.4954
vn -0.8660 0.5000 0.0000
vn -0.7523 0.4343 0.4954
vn -0.4399 0.2540 0.8614
vn -0.0093 0.0054 0.9999
vn 0.4259 -0.2459 0.8707
vn 0.7476 -0.4316 0.5047
vn 0.8660 -0.5000 0.0000
vn 0.7476 -0.4316 -0.5047
vn 0.4259 -0.2459 -0.8707
vn -0.0093 0.0054 -0.9999
vn -0.4399 0.2540 -0.8614
vn -0.7523 0.4343 -0.4954
vn -0.9239 0.3827 0.0000
vn -0.8025 0.3324 0.4954
vn -0.4693 0.1944 0.8614
vn -0.0099 0.0041 0.9999
vn 0.4544 -0.1882 0.8707
vn 0.7975 -0.3304 0.5047
vn 0.9239 -0.3827 0.0000
vn 0.7975 -0.3304 -0.5047
vn 0.4544 -0.1882 -0.8707
vn -0.0099 0.0041 -0.9999
vn -0.4693 0.1944 -0.8614
vn -0.8025 0.3324 -0.4954
vn -0.9659 0.2588 0.0000
vn -0.8390 0.2248 0.4954
vn -0.4907 0.1315 0.8614
vn -0.0104 0.0028 0.9999
vn 0.4751 -0.1273 0.8707
vn 0.8339 -0.2234 0.5047
vn 0.9659 -0.2588 0.0000
vn 0.8339 -0.2234 -0.5047
vn 0.4751 -0.1273 -0.8707
vn -0.0104 0.0028 -0.9999
vn -0.4907 0.1315 -0.8614
vn -0.8390 0.2248 -0.4954
vn -0.9914 0.1305 0.0000
vn -0.8612 0.1134 0.4954
vn -0.5036 0.0663 0.8614
vn -0.0107 0.0014 0.9999
vn 0.4876 -0.0642 0.8707
vn 0.8559 -0.1127 0.5047
vn 0.9914 -0.1305 0.0000
vn 0.8559 -0.1127 -0.5047
vn 0.4876 -0.0642 -0.8707
vn -0.0107 0.0014 -0.9999
vn -0.5036 0.0663 -0.8614
vn -0.8612 0.1134 -0.4954
vn -0.8686 0.0000 0.4954
vn -0.5080 0.0000 0.8614
vn -0.0108 0.0000 0.9999
vn 0.4918 0.0000 0.8707
vn 0.8633 0.0000 0.5047
vn 0.8633 0.0000 -0.5047
vn 0.4918 0.0000 -0.8707
vn -0.0108 0.0000 -0.9999
vn -0.5080 0.0000 -0.8614
vn -0.8686 0.0000 -0.4954
vn -0.8612 -0.1134 0.4954
vn -0.5036 -0.0663 0.8614
vn -0.0107 -0.0014 0.9999
vn 0.4876 0.0642 0.8707
vn 0.8559 0.1127 0.5047
vn 0.8559 0.1127 -0.5047
vn 0.4876 0.0642 -0.8707
vn -0.0107 -0.0014 -0.9999
vn -0.5036 -0.0663 -0.8614
vn -0.8612 -0.1134 -0.4954
vn -0.8390 -0.2248 0.4954
vn -0.4907 -0.1315 0.8614
vn -0.0104 -0.0028 0.9999
vn 0.4751 0.1273 0.8707
vn 0.8339 0.2234 0.5047
vn 0.8339 0.2234 -0.5047
vn 0.4751 0.1273 -0.8707
vn -0.0104 -0.0028 -0.9999
vn -0.4907 -0.1315 -0.8614
vn -0.8390 -0.2248 -0.4954
vn -0.8025 -0.3324 0.4954
vn -0.4693 -0.1944 0.8614
vn -0.0099 -0.0041 0.9999
vn 0.4544 0.1882 0.8707
vn 0.7975 0.3304 0.5047
vn 0.7975 0.3304 -0.5047
vn 0.4544 0.1882 -0.8707
vn -0.0099 -0.0041 -0.9999
vn -0.4693 -0.1944 -0.8614
vn -0.8025 -0.3324 -0.4954
vn -0.7523 -0.4343 0.4954
vn -0.4399 -0.2540 0.8614
vn -0.0093 -0.0054 0.9999
vn 0.4259 0.2459 0.8707
vn 0.7476 0.4316 0.5047
vn 0.7476 0.4316 -0.5047
vn 0.4259 0.2459 -0.8707
vn -0.0093 -0.0054 -0.9999
vn -0.4399 -0.2540 -0.8614
vn -0.7523 -0.4343 -0.4954
vn -0.6891 -0.5288 0.4954
vn -0.4030 -0.3092 0.8614
vn -0.0085 -0.0066 0.9999
vn 0.3902 0.2994 0.8707
vn 0.6849 0.5255 0.5047
vn 0.6849 0.5255 -0.5047
vn 0.3902 0.2994 -0.8707
vn -0.0085 -0.0066 -0.9999
vn -0.4030 -0.3092 -0.8614
vn -0.6891 -0.5288 -0.4954
vn -0.6142 -0.6142 0.4954
vn -0.3592 -0.3592 0.8614
vn -0.0076 -0.0076 0.9999
vn 0.3478 0.3478 0.8707
vn 0.6104 0.6104 0.5047
vn 0.6104 0.6104 -0.5047
vn 0.3478 0.3478 -0.8707
vn -0.0076 -0.0076 -0.9999
vn -0.3592 -0.3592 -0.8614
vn -0.6142 -0.6142 -0.4954
vn -0.5288 -0.6891 0.4954
vn -0.3092 -0.4030 0.8614
vn -0.0066 -0.0085 0.9999
vn 0.2994 0.3902 0.8707
vn 0.5255 0.6849 0.5047
vn 0.5255 0.6849 -0.5047
vn 0.2994 0.3902 -0.8707
vn -0.0066 -0.0085 -0.9999
vn -0.3092 -0.4030 -0.8614
vn -0.5288 -0.6891 -0.4954
vn -0.4343 -0.7523 0.4954
vn -0.2540 -0.4399 0.8614
vn -0.0054 -0.0093 0.9999
vn 0.2459 0.4259 0.8707
vn 0.4316 0.7476 0.5047
vn 0.4316 0.7476 -0.5047
vn 0.2459 0.4259 -0.8707
vn -0.0054 -0.0093 -0.9999
vn -0.2540 -0.4399 -0.8614
vn -0.4343 -0.7523 -0.4954
vn -0.3324 -0.8025 0.4954
vn -0.1944 -0.4693 0.8614
vn -0.0041 -0.0099 0.9999
vn 0.1882 0.4544 0.8707
vn 0.3304 0.7975 0.5047
vn 0.3304 0.7975 -0.5047
vn 0.1882 0.4544 -0.8707
vn -0.0041 -0.0099 -0.9999
vn -0.1944 -0.4693 -0.8614
vn -0.3324 -0.8025 -0.4954
vn -0.2248 -0.8390 0.4954
vn -0.1315 -0.4907 0.8614
vn -0.0028 -0.0104 0.9999
vn 0.1273 0.4751 0.8707
vn 0.2234 0.8339 0.5047
vn 0.2234 0.8339 -0.5047
vn 0.1273 0.4751 -0.8707
vn -0.0028 -0.0104 -0.9999
vn -0.1315 -0.4907 -0.8614
vn -0.2248 -0.8390 -0.4954
vn -0.1134 -0.8612 0.4954
vn -0.0663 -0.5036 0.8614
vn -0.0014 -0.0107 0.9999
vn 0.0642 0.4876 0.8707
vn 0.1127 0.8559 0.5047
vn 0.1127 0.8559 -0.5047
vn 0.0642 0.4876 -0.8707
vn -0.0014 -0.0107 -0.9999
vn -0.0663 -0.5036 -0.8614
vn -0.1134 -0.8612 -0.4954
vn 0.0000 -0.8686 0.4954
vn 0.0000 -0.5080 0.8614
vn 0.0000 -0.0108 0.9999
vn 0.0000 0.4918 0.8707
vn 0.0000 0.8633 0.5047
vn 0.0000 0.8633 -0.5047
vn 0.0000 0.4918 -0.8707
vn 0.0000 -0.0108 -0.9999
vn 0.0000 -0.5080 -0.8614
vn 0.0000 -0.8686 -0.4954
vn 0.1134 -0.8612 0.4954
vn 0.0663 -0.5036 0.8614
vn 0.0014 -0.0107 0.9999
vn -0.0642 0.4876 0.8707
vn -0.1127 0.8559 0.5047
vn -0.1127 0.8559 -0.5047
vn -0.0642 0.4876 -0.8707
vn 0.0014 -0.0107 -0.9999
vn 0.0663 -0.5036 -0.8614
vn 0.1134 -0.8612 -0.4954
vn 0.2248 -0.8390 0.4954
vn 0.1315 -0.4907 0.8614
vn 0.0028 -0.0104 0.9999
vn -0.1273 0.4751 0.8707
vn -0.2234 0.8339 0.5047
vn -0.2234 0.8339 -0.5047
vn -0.1273 0.4751 -0.8707
vn 0.0028 -0.0104 -0.9999
vn 0.1315 -0.4907 -0.8614
vn 0.2248 -0.8390 -0.4954
vn 0.3324 -0.8025 0.4954
vn 0.1944 -0.4693 0.8614
vn 0.0041 -0.0099 0.9999
vn -0.1882 0.4544 0.8707
vn -0.3304 0.7975 0.5047
vn -0.3304 0.7975 -0.5047
vn -0.1882 0.4544 -0.8707
vn 0.0041 -0.0099 -0.9999
vn 0.1944 -0.4693 -0.8614
vn 0.3324 -0.8025 -0.4954
vn 0.4343 -0.7523 0.4954
vn 0.2540 -0.4399 0.8614
vn 0.0054 -0.0093 0.9999
vn -0.2459 0.4259 0.8707
vn -0.4316 0.7476 0.5047
vn -0.4316 0.7476 -0.5047
vn -0.2459 0.4259 -0.8707
vn 0.0054 -0.0093 -0.9999
vn 0.2540 -0.4399 -0.8614
vn 0.4343 -0.7523 -0.4954
vn 0.5288 -0.6891 0.4954
vn 0.3092 -0.4030 0.8614
vn 0.0066 -0.0085 0.9999
vn -0.2994 0.3902 0.8707
vn -0.5255 0.6849 0.5047
vn -0.5255 0.6849 -0.5047
vn -0.2994 0.3902 -0.8707
vn 0.0066 -0.0085 -0.9999
vn 0.3092 -0.4030 -0.8614
vn 0.5288 -0.6891 -0.4954
vn 0.6142 -0.6142 0.4954
vn 0.3592 -0.3592 0.8614
vn 0.0076 -0.0076 0.9999
vn -0.3478 0.3478 0.8707
vn -0.6104 0.6104 0.5047
vn -0.6104 0.6104 -0.5047
vn -0.3478 0.3478 -0.8707
vn 0.0076 -0.0076 -0.9999
vn 0.3592 -0.3592 -0.8614
vn 0.6142 -0.6142 -0.4954
vn 0.6891 -0.5288 0.4954
vn 0.4030 -0.3092 0.8614
vn 0.0085 -0.0066 0.9999
vn -0.3902 0.2994 0.8707
vn -0.6849 0.5255 0.5047
vn -0.6849 0.5255 -0.5047
vn -0.3902 0.2994 -0.8707
vn 0.0085 -0.0066 -0.9999
vn 0.4030 -0.3092 -0.8614
vn 0.6891 -0.5288 -0.4954
vn 0.7523 -0.4343 0.4954
vn 0.4399 -0.2540 0.8614
vn 0.0093 -0.0054 0.9999
vn -0.4259 0.2459 0.8707
vn -0.7476 0.4316 0.5047
vn -0.7476 0.4316 -0.5047
vn -0.4259 0.2459 -0.8707
vn 0.0093 -0.0054 -0.9999
vn 0.4399 -0.2540 -0.8614
vn 0.7523 -0.4343 -0.4954
vn 0.8025 -0.3324 0.4954
vn 0.4693 -0.1944 0.8614
vn 0.0099 -0.0041 0.9999
vn -0.4544 0.1882 0.8707
vn -0.7975 0.3304 0.5047
vn -0.7975 0.3304 -0.5047
vn -0.4544 0.1882 -0.8707
vn 0.0099 -0.0041 -0.9999
vn 0.4693 -0.1944 -0.8614
vn 0.8025 -0.3324 -0.4954
vn 0.8390 -0.2248 0.4954
vn 0.4907 -0.1315 0.8614
vn 0.0104 -0.0028 0.9999
vn -0.4751 0.1273 0.8707
vn -0.8339 0.2234 0.5047
vn -0.8339 0.2234 -0.5047
vn -0.4751 0.1273 -0.8707
vn 0.0104 -0.0028 -0.9999
vn 0.4907 -0.1315 -0.8614
vn 0.8390 -0.2248 -0.4954
vn 0.8612 -0.1134 0.4954
vn 0.5036 -0.0663 0.8614
vn 0.0107 -0.0014 0.9999
vn -0.4876 0.0642 0.8707
vn -0.8559 0.1127 0.5047
vn -0.8559 0.1127 -0.5047
vn -0.4876 0.0642 -0.8707
vn 0.0107 -0.0014 -0.9999
vn 0.5036 -0.0663 -0.8614
vn 0.8612 -0.1134 -0.4954
usemtl Material
s 1
f 1/1/1 13/2/2 14/3/3 2/4/4
f 2/4/4 14/3/3 15/5/5 3/6/6
f 3/6/6 15/5/5 16/7/7 4/8/8
f 4/8/8 16/7/7 17/9/9 5/10/10
f 5/10/10 17/9/9 18/11/11 6/12/12
f 6/12/12 18/11/11 19/13/13 7/14/14
f 7/15/14 19/16/13 20/17/15 8/18/16
f 8/18/16 20/17/15 21/19/17 9/20/18
f 9/20/18 21/19/17 22/21/19 10/22/20
f 10/22/20 22/21/19 23/23/21 11/24/22
f 11/24/22 23/23/21 24/25/23 12/26/24
f 12/26/24 24/25/23 13/2/2 1/1/1
f 13/2/2 25/27/25 26/28/26 14/3/3
f 14/3/3 26/28/26 27/29/27 15/5/5
f 15/5/5 27/29/27 28/30/28 16/7/7
f 16/7/7 28/30/28 29/31/29 17/9/9
f 17/9/9 29/31/29 30/32/30 18/11/11
f 18/11/11 30/32/30 31/33/31 19/13/13
f 19/16/13 31/34/31 32/35/32 20/17/15
f 20/17/15 32/35/32 33/36/33 21/19/17
f 21/19/17 33/36/33 34/37/34 22/21/19
f 22/21/19 34/37/34 35/38/35 23/23/21
f 23/23/21 35/38/35 36/39/36 24/25/23
f 24/25/23 36/39/36 25/27/25 13/2/2
f 25/27/25 37/40/37 38/41/38 26/28/26
f 26/28/26 38/41/38 39/42/39 27/29/27
f 27/29/27 39/42/39 40/43/40 28/30/28
f 28/30/28 40/43/40 41/44/41 29/31/29
f 29/31/29 41/44/41 42/45/42 30/32/30
f 30/32/30 42/45/42 43/46/43 31/33/31
f 31/34/31 43/47/43 44/48/44 32/35/32
f 32/35/32 44/48/44 45/49/45 33/36/33
f 33/36/33 45/49/45 46/50/46 34/37/34
f 34/37/34 46/50/46 47/51/47 35/38/35
f 35/38/35 47/51/47 48/52/48 36/39/36
f 36/39/36 48/52/48 37/40/37 25/27/25
f 37/40/37 49/53/49 50/54/50 38/41/38
f 38/41/38 50/54/50 51/55/51 39/42/39
f 39/42/39 51/55/51 52/56/52 40/43/40
f 40/43/40 52/56/52 53/57/53 41/44/41
f 41/44/41 53/57/53 54/58/54 42/45/42
f 42/45/42 54/58/54 55/59/55 43/46/43
f 43/47/43 55/60/55 56/61/56 44/48/44
f 44/48/44 56/61/56 57/62/57 45/49/45
f 45/49/45 57/62/57 58/63/58 46/50/46
f 46/50/46 58/63/58 59/64/59 47/51/47
f 47/51/47 59/64/59 60/65/60 48/52/48
f 48/52/48 60/65/60 49/53/49 37/40/37
f 49/53/49 61/66/61 62/67/62 50/54/50
f 50/54/50 62/67/62 63/68/63 51/55/51
f 51/55/51 63/68/63 64/69/64 52/56/52
f 52/56/52 64/69/64 65/70/65 53/57/53
f 53/57/53 65/70/65 66/71/66 54/58/54
f 54/58/54 66/71/66 67/72/67 55/59/55
f 55/60/55 67/73/67 68/74/68 56/61/56
f 56/61/56 68/74/68 69/75/69 57/62/57
f 57/62/57 69/75/69 70/76/70 58/63/58
f 58/63/58 70/76/70 71/77/71 59/64/59
f 59/64/59 71/77/71 72/78/72 60/65/60
f 60/65/60 72/78/72 61/66/61 49/53/49
f 61/66/61 73/79/73 74/80/74 62/67/62
f 62/67/62 74/80/74 75/81/75 63/68/63
f 63/68/63 75/81/75 76/82/76 64/69/64
f 64/69/64 76/82/76 77/83/77 65/70/65
f 65/70/65 77/83/77 78/84/78 66/71/66
f 66/71/66 78/84/78 79/85/79 67/72/67
f 67/73/67 79/86/79 80/87/80 68/74/68
f 68/74/68 80/87/80 81/88/81 69/75/69
f 69/75/69 81/88/81 82/89/82 70/76/70
f 70/76/70 82/89/82 83/90/83 71/77/71
f 71/77/71 83/90/83 84/91/84 72/78/72
f 72/78/72 84/91/84 73/79/73 61/66/61
f 73/79/73 85/92/85 86/93/86 74/80/74
f 74/80/74 86/93/86 87/94/87 75/81/75
f 75/81/75 87/94/87 88/95/88 76/82/76
f 76/82/76 88/95/88 89/96/89 77/83/77
f 77/83/77 89/96/89 90/97/90 78/84/78
f 78/84/78 90/97/90 91/98/91 79/85/79
f 79/86/79 91/99/91 92/100/92 80/87/80
f 80/87/80 92/100/92 93/101/93 81/88/81
f 81/88/81 93/101/93 94/102/94 82/89/82
f 82/89/82 94/102/94 95/103/95 83/90/83
f 83/90/83 95/103/95 96/104/96 84/91/84
f 84/91/84 96/104/96 85/92/85 73/79/73
f 85/92/85 97/105/97 98/106/98 86/93/86
f 86/93/86 98/106/98 99/107/99 87/94/87
f 87/94/87 99/107/99 100/108/100 88/95/88
f 88/95/88 100/108/100 101/109/101 89/96/89
f 89/96/89 101/109/101 102/110/102 90/97/90
f 90/97/90 102/110/102 103/111/103 91/98/91
f 91/99/91 103/112/103 104/113/104 92/100/92
f 92/100/92 104/113/104 105/114/105 93/101/93
f 93/101/93 105/114/105 106/115/106 94/102/94
f 94/102/94 106/115/106 107/116/107 95/103/95
f 95/103/95 107/116/107 108/117/108 96/104/96
f 96/104/96 108/117/108 97/105/97 85/92/85
f 97/105/97 109/118/109 110/119/110 98/106/98
f 98/106/98 110/119/110 111/120/111 99/107/99
f 99/107/99 111/120/111 112/121/112 100/108/100
f 100/108/100 112/121/112 113/122/113 101/109/101
f 101/109/101 113/122/113 114/123/114 102/110/102
f 102/110/102 114/123/114 115/124/115 103/111/103
f 103/112/103 115/125/115 116/126/116 104/113/104
f 104/113/104 116/126/116 117/127/117 105/114/105
f 105/114/105 117/127/117 118/128/118 106/115/106
f 106/115/106 118/128/118 119/129/119 107/116/107
f 107/116/107 119/129/119 120/130/120 108/117/108
f 108/117/108 120/130/120 109/118/109 97/105/97
f 109/118/109 121/131/121 122/132/122 110/119/110
f 110/119/110 122/132/122 123/133/123 111/120/111
f 111/120/111 123/133/123 124/134/124 112/121/112
f 112/121/112 124/134/124 125/135/125 113/122/113
f 113/122/113 125/135/125 126/136/126 114/123/114
f 114/123/114 126/136/126 127/137/127 115/124/115
f 115/125/115 127/138/127 128/139/128 116/126/116
f 116/126/116 128/139/128 129/140/129 117/127/117
f 117/127/117 129/140/129 130/141/130 118/128/118
f 118/128/118 130/141/130 131/142/131 119/129/119
f 119/129/119 131/142/131 132/143/132 120/130/120
f 120/130/120 132/143/132 121/131/121 109/118/109
f 121/131/121 133/144/133 134/145/134 122/132/122
f 122/132/122 134/145/134 135/146/135 123/133/123
f 123/133/123 135/146/135 136/147/136 124/134/124
f 124/134/124 136/147/136 137/148/137 125/135/125
f 125/135/125 137/148/137 138/149/138 126/136/126
f 126/136/126 138/149/138 139/150/139 127/137/127
f 127/138/127 139/151/139 140/152/140 128/139/128
f 128/139/128 140/152/140 141/153/141 129/140/129
f 129/140/129 141/153/141 142/154/142 130/141/130
f 130/141/130 142/154/142 143/155/143 131/142/131
f 131/142/131 143/155/143 144/156/144 132/143/132
f 132/143/132 144/156/144 133/144/133 121/131/121
f 133/144/133 145/157/145 146/158/146 134/145/134
f 134/145/134 146/158/146 147/159/147 135/146/135
f 135/146/135 147/159/147 148/160/148 136/147/136
f 136/147/136 148/160/148 149/161/149 137/148/137
f 137/148/137 149/161/149 150/162/150 138/149/138
f 138/149/138 150/162/150 151/163/151 139/150/139
f 139/151/139 151/164/151 152/165/152 140/152/140
f 140/152/140 152/165/152 153/166/153 141/153/141
f 141/153/141 153/166/153 154/167/154 142/154/142
f 142/154/142 154/167/154 155/168/155 143/155/143
f 143/155/143 155/168/155 156/169/156 144/156/144
f 144/156/144 156/169/156 145/157/145 133/144/133
f 145/157/145 157/170/157 158/171/158 146/158/146
f 146/158/146 158/171/158 159/172/159 147/159/147
f 147/159/147 159/172/159 160/173/160 148/160/148
f 148/160/148 160/173/160 161/174/161 149/161/149
f 149/161/149 161/174/161 162/175/162 150/162/150
f 150/162/150 162/175/162 163/176/163 151/163/151
f 151/164/151 163/177/163 164/178/164 152/165/152
f 152/165/152 164/178/164 165/179/165 153/166/153
f 153/166/153 165/179/165 166/180/166 154/167/154
f 154/167/154 166/180/166 167/181/167 155/168/155
f 155/168/155 167/181/167 168/182/168 156/169/156
f 156/169/156 168/182/168 157/170/157 145/157/145
f 157/170/157 169/183/169 170/184/170 158/171/158
f 158/171/158 170/184/170 171/185/171 159/172/159
f 159/172/159 171/185/171 172/186/172 160/173/160
f 160/173/160 172/186/172 173/187/173 161/174/161
f 161/174/161 173/187/173 174/188/174 162/175/162
f 162/175/162 174/188/174 175/189/175 163/176/163
f 163/177/163 175/190/175 176/191/176 164/178/164
f 164/178/164 176/191/176 177/192/177 165/179/165
f 165/179/165 177/192/177 178/193/178 166/180/166
f 166/180/166 178/193/178 179/194/179 167/181/167
f 167/181/167 179/194/179 180/195/180 168/182/168
f 168/182/168 180/195/180 169/183/169 157/170/157
f 169/183/169 181/196/181 182/197/182 170/184/170
f 170/184/170 182/197/182 183/198/183 171/185/171
f 171/185/171 183/198/183 184/199/184 172/186/172
f 172/186/172 184/199/184 185/200/185 173/187/173
f 173/187/173 185/200/185 186/201/186 174/188/174
f 174/188/174 186/201/186 187/202/187 175/189/175
f 175/190/175 187/203/187 188/204/188 176/191/176
f 176/191/176 188/204/188 189/205/189 177/192/177
f 177/192/177 189/205/189 190/206/190 178/193/178
f 178/193/178 190/206/190 191/207/191 179/194/179
f 179/194/179 191/207/191 192/208/192 180/195/180
f 180/195/180 192/208/192 181/196/181 169/183/169
f 181/196/181 193/209/193 194/210/194 182/197/182
f 182/197/182 194/210/194 195/211/195 183/198/183
f 183/198/183 195/211/195 196/212/196 184/199/184
f 184/199/184 196/212/196 197/213/197 185/200/185
f 185/200/185 197/213/197 198/214/198 186/201/186
f 186/201/186 198/214/198 199/215/199 187/202/187
f 187/203/187 199/216/199 200/217/200 188/204/188
f 188/204/188 200/217/200 201/218/201 189/205/189
f 189/205/189 201/218/201 202/219/202 190/206/190
f 190/206/190 202/219/202 203/220/203 191/207/191
f 191/207/191 203/220/203 204/221/204 192/208/192
f 192/208/192 204/221/204 193/209/193 181/196/181
f 193/209/193 205/222/205 206/223/206 194/210/194
f 194/210/194 206/223/206 207/224/207 195/211/195
f 195/211/195 207/224/207 208/225/208 196/212/196
f 196/212/196 208/225/208 209/226/209 197/213/197
f 197/213/197 209/226/209 210/227/210 198/214/198
f 198/214/198 210/227/210 211/228/211 199/215/199
f 199/216/199 211/229/211 212/230/212 200/217/200
f 200/217/200 212/230/212 213/231/213 201/218/201
f 201/218/201 213/231/213 214/232/214 202/219/202
f 202/219/202 214/232/214 215/233/215 203/220/203
f 203/220/203 215/233/215 216/234/216 204/221/204
f 204/221/204 216/234/216 205/222/205 193/209/193
f 205/222/205 217/235/217 218/236/218 206/223/206
f 206/223/206 218/236/218 219/237/219 207/224/207
f 207/224/207 219/237/219 220/238/220 208/225/208
f 208/225/208 220/238/220 221/239/221 209/226/209
f 209/226/209 221/239/221 222/240/222 210/227/210
f 210/227/210 222/240/222 223/241/223 211/228/211
f 211/229/211 223/242/223 224/243/224 212/230/212
f 212/230/212 224/243/224 225/244/225 213/231/213
f 213/231/213 225/244/225 226/245/226 214/232/214
f 214/232/214 226/245/226 227/246/227 215/233/215
f 215/233/215 227/246/227 228/247/228 216/234/216
f 216/234/216 228/247/228 217/235/217 205/222/205
f 217/235/217 229/248/229 230/249/230 218/236/218
f 218/236/218 230/249/230 231/250/231 219/237/219
f 219/237/219 231/250/231 232/251/232 220/238/220
f 220/238/220 232/251/232 233/252/233 221/239/221
f 221/239/221 233/252/233 234/253/234 222/240/222
f 222/240/222 234/253/234 235/254/235 223/241/223
f 223/242/223 235/255/235 236/256/236 224/243/224
f 224/243/224 236/256/236 237/257/237 225/244/225
f 225/244/225 237/257/237 238/258/238 226/245/226
f 226/245/226 238/258/238 239/259/239 227/246/227
f 227/246/227 239/259/239 240/260/240 228/247/228
f 228/247/228 240/260/240 229/248/229 217/235/217
f 229/248/229 241/261/241 242/262/242 230/249/230
f 230/249/230 242/262/242 243/263/243 231/250/231
f 231/250/231 243/263/243 244/264/244 232/251/232
f 232/251/232 244/264/244 245/265/245 233/252/233
f 233/252/233 245/265/245 246/266/246 234/253/234
f 234/253/234 246/266/246 247/267/247 235/254/235
f 235/255/235 247/268/247 248/269/248 236/256/236
f 236/256/236 248/269/248 249/270/249 237/257/237
f 237/257/237 249/270/249 250/271/250 238/258/238
f 238/258/238 250/271/250 251/272/251 239/259/239
f 239/259/239 251/272/251 252/273/252 240/260/240
f 240/260/240 252/273/252 241/261/241 229/248/229
f 241/261/241 253/274/253 254/275/254 242/262/242
f 242/262/242 254/275/254 255/276/255 243/263/243
f 243/263/243 255/276/255 256/277/256 244/264/244
f 244/264/244 256/277/256 257/278/257 245/265/245
f 245/265/245 257/278/257 258/279/258 246/266/246
f 246/266/246 258/279/258 259/280/259 247/267/247
f 247/268/247 259/281/259 260/282/260 248/269/248
f 248/269/248 260/282/260 261/283/261 249/270/249
f 249/270/249 261/283/261 262/284/262 250/271/250
f 250/271/250 262/284/262 263/285/263 251/272/251
f 251/272/251 263/285/263 264/286/264 252/273/252
f 252/273/252 264/286/264 253/274/253 241/261/241
f 253/274/253 265/287/265 266/288/266 254/275/254
f 254/275/254 266/288/266 267/289/267 255/276/255
f 255/276/255 267/289/267 268/290/268 256/277/256
f 256/277/256 268/290/268 269/291/269 257/278/257
f 257/278/257 269/291/269 270/292/270 258/279/258
f 258/279/258 270/292/270 271/293/271 259/280/259
f 259/281/259 271/294/271 272/295/272 260/282/260
f 260/282/260 272/295/272 273/296/273 261/283/261
f 261/283/261 273/296/273 274/297/274 262/284/262
f 262/284/262 274/297/274 275/298/275 263/285/263
f 263/285/263 275/298/275 276/299/276 264/286/264
f 264/286/264 276/299/276 265/287/265 253/274/253
f 265/287/265 277/300/277 278/301/278 266/288/266
f 266/288/266 278/301/278 279/302/279 267/289/267
f 267/289/267 279/302/279 280/303/280 268/290/268
f 268/290/268 280/303/280 281/304/281 269/291/269
f 269/291/269 281/304/281 282/305/282 270/292/270
f 270/292/270 282/305/282 283/306/283 271/293/271
f 271/294/271 283/307/283 284/308/284 272/295/272
f 272/295/272 284/308/284 285/309/285 273/296/273
f 273/296/273 285/309/285 286/310/286 274/297/274
f 274/297/274 286/310/286 287/311/287 275/298/275
f 275/298/275 287/311/287 288/312/288 276/299/276
f 276/299/276 288/312/288 277/300/277 265/287/265
f 277/300/277 289/313/14 290/314/289 278/301/278
f 278/301/278 290/314/289 291/315/290 279/302/279
f 279/302/279 291/315/290 292/316/291 280/303/280
f 280/303/280 292/316/291 293/317/292 281/304/281
f 281/304/281 293/317/292 294/318/293 282/305/282
f 282/305/282 294/318/293 295/319/1 283/306/283
f 283/307/283 295/320/1 296/321/294 284/308/284
f 284/308/284 296/321/294 297/322/295 285/309/285
f 285/309/285 297/322/295 298/323/296 286/310/286
f 286/310/286 298/323/296 299/324/297 287/311/287
f 287/311/287 299/324/297 300/325/298 288/312/288
f 288/312/288 300/325/298 289/313/14 277/300/277
f 289/326/14 301/327/13 302/328/299 290/329/289
f 290/329/289 302/328/299 303/330/300 291/331/290
f 291/331/290 303/330/300 304/332/301 292/333/291
f 292/333/291 304/332/301 305/334/302 293/335/292
f 293/335/292 305/334/302 306/336/303 294/337/293
f 294/337/293 306/336/303 307/338/2 295/339/1
f 295/340/1 307/341/2 308/342/304 296/343/294
f 296/343/294 308/342/304 309/344/305 297/345/295
f 297/345/295 309/344/305 310/346/306 298/347/296
f 298/347/296 310/346/306 311/348/307 299/349/297
f 299/349/297 311/348/307 312/350/308 300/351/298
f 300/351/298 312/350/308 301/327/13 289/326/14
f 301/327/13 313/352/31 314/353/309 302/328/299
f 302/328/299 314/353/309 315/354/310 303/330/300
f 303/330/300 315/354/310 316/355/311 304/332/301
f 304/332/301 316/355/311 317/356/312 305/334/302
f 305/334/302 317/356/312 318/357/313 306/336/303
f 306/336/303 318/357/313 319/358/25 307/338/2
f 307/341/2 319/359/25 320/360/314 308/342/304
f 308/342/304 320/360/314 321/361/315 309/344/305
f 309/344/305 321/361/315 322/362/316 310/346/306
f 310/346/306 322/362/316 323/363/317 311/348/307
f 311/348/307 323/363/317 324/364/318 312/350/308
f 312/350/308 324/364/318 313/352/31 301/327/13
f 313/352/31 325/365/43 326/366/319 314/353/309
f 314/353/309 326/366/319 327/367/320 315/354/310
f 315/354/310 327/367/320 328/368/321 316/355/311
f 316/355/311 328/368/321 329/369/322 317/356/312
f 317/356/312 329/369/322 330/370/323 318/357/313
f 318/357/313 330/370/323 331/371/37 319/358/25
f 319/359/25 331/372/37 332/373/324 320/360/314
f 320/360/314 332/373/324 333/374/325 321/361/315
f 321/361/315 333/374/325 334/375/326 322/362/316
f 322/362/316 334/375/326 335/376/327 323/363/317
f 323/363/317 335/376/327 336/377/328 324/364/318
f 324/364/318 336/377/328 325/365/43 313/352/31
f 325/365/43 337/378/55 338/379/329 326/366/319
f 326/366/319 338/379/329 339/380/330 327/367/320
f 327/367/320 339/380/330 340/381/331 328/368/321
f 328/368/321 340/381/331 341/382/332 329/369/322
f 329/369/322 341/382/332 342/383/333 330/370/323
f 330/370/323 342/383/333 343/384/49 331/371/37
f 331/372/37 343/385/49 344/386/334 332/373/324
f 332/373/324 344/386/334 345/387/335 333/374/325
f 333/374/325 345/387/335 346/388/336 334/375/326
f 334/375/326 346/388/336 347/389/337 335/376/327
f 335/376/327 347/389/337 348/390/338 336/377/328
f 336/377/328 348/390/338 337/378/55 325/365/43
f 337/378/55 349/391/67 350/392/339 338/379/329
f 338/379/329 350/392/339 351/393/340 339/380/330
f 339/380/330 351/393/340 352/394/341 340/381/331
f 340/381/331 352/394/341 353/395/342 341/382/332
f 341/382/332 353/395/342 354/396/343 342/383/333
f 342/383/333 354/396/343 355/397/61 343/384/49
f 343/385/49 355/398/61 356/399/344 344/386/334
f 344/386/334 356/399/344 357/400/345 345/387/335
f 345/387/335 357/400/345 358/401/346 346/388/336
f 346/388/336 358/401/346 359/402/347 347/389/337
f 347/389/337 359/402/347 360/403/348 348/390/338
f 348/390/338 360/403/348 349/391/67 337/378/55
f 349/391/67 361/404/79 362/405/349 350/392/339
f 350/392/339 362/405/349 363/406/350 351/393/340
f 351/393/340 363/406/350 364/407/351 352/394/341
f 352/394/341 364/407/351 365/408/352 353/395/342
f 353/395/342 365/408/352 366/409/353 354/396/343
f 354/396/343 366/409/353 367/410/73 355/397/61
f 355/398/61 367/411/73 368/412/354 356/399/344
f 356/399/344 368/412/354 369/413/355 357/400/345
f 357/400/345 369/413/355 370/414/356 358/401/346
f 358/401/346 370/414/356 371/415/357 359/402/347
f 359/402/347 371/415/357 372/416/358 360/403/348
f 360/403/348 372/416/358 361/404/79 349/391/67
f 361/404/79 373/417/91 374/418/359 362/405/349
f 362/405/349 374/418/359 375/419/360 363/406/350
f 363/406/350 375/419/360 376/420/361 364/407/351
f 364/407/351 376/420/361 377/421/362 365/408/352
f 365/408/352 377/421/362 378/422/363 366/409/353
f 366/409/353 378/422/363 379/423/85 367/410/73
f 367/411/73 379/424/85 380/425/364 368/412/354
f 368/412/354 380/425/364 381/426/365 369/413/355
f 369/413/355 381/426/365 382/427/366 370/414/356
f 370/414/356 382/427/366 383/428/367 371/415/357
f 371/415/357 383/428/367 384/429/368 372/416/358
f 372/416/358 384/429/368 373/417/91 361/404/79
f 373/417/91 385/430/103 386/431/369 374/418/359
f 374/418/359 386/431/369 387/432/370 375/419/360
f 375/419/360 387/432/370 388/433/371 376/420/361
f 376/420/361 388/433/371 389/434/372 377/421/362
f 377/421/362 389/434/372 390/435/373 378/422/363
f 378/422/363 390/435/373 391/436/97 379/423/85
f 379/424/85 391/437/97 392/438/374 380/425/364
f 380/425/364 392/438/374 393/439/375 381/426/365
f 381/426/365 393/439/375 394/440/376 382/427/366
f 382/427/366 394/440/376 395/441/377 383/428/367
f 383/428/367 395/441/377 396/442/378 384/429/368
f 384/429/368 396/442/378 385/430/103 373/417/91
f 385/430/103 397/443/115 398/444/379 386/431/369
f 386/431/369 398/444/379 399/445/380 387/432/370
f 387/432/370 399/445/380 400/446/381 388/433/371
f 388/433/371 400/446/381 401/447/382 389/434/372
f 389/434/372 401/447/382 402/448/383 390/435/373
f 390/435/373 402/448/383 403/449/109 391/436/97
f 391/437/97 403/450/109 404/451/384 392/438/374
f 392/438/374 404/451/384 405/452/385 393/439/375
f 393/439/375 405/452/385 406/453/386 394/440/376
f 394/440/376 406/453/386 407/454/387 395/441/377
f 395/441/377 407/454/387 408/455/388 396/442/378
f 396/442/378 408/455/388 397/443/115 385/430/103
f 397/443/115 409/456/127 410/457/389 398/444/379
f 398/444/379 410/457/389 411/458/390 399/445/380
f 399/445/380 411/458/390 412/459/391 400/446/381
f 400/446/381 412/459/391 413/460/392 401/447/382
f 401/447/382 413/460/392 414/461/393 402/448/383
f 402/448/383 414/461/393 415/462/121 403/449/109
f 403/450/109 415/463/121 416/464/394 404/451/384
f 404/451/384 416/464/394 417/465/395 405/452/385
f 405/452/385 417/465/395 418/466/396 406/453/386
f 406/453/386 418/466/396 419/467/397 407/454/387
f 407/454/387 419/467/397 420/468/398 408/455/388
f 408/455/388 420/468/398 409/456/127 397/443/115
f 409/456/127 421/469/139 422/470/399 410/457/389
f 410/457/389 422/470/399 423/471/400 411/458/390
f 411/458/390 423/471/400 424/472/401 412/459/391
f 412/459/391 424/472/401 425/473/402 413/460/392
f 413/460/392 425/473/402 426/474/403 414/461/393
f 414/461/393 426/474/403 427/475/133 415/462/121
f 415/463/121 427/476/133 428/477/404 416/464/394
f 416/464/394 428/477/404 429/478/405 417/465/395
f 417/465/395 429/478/405 430/479/406 418/466/396
f 418/466/396 430/479/406 431/480/407 419/467/397
f 419/467/397 431/480/407 432/481/408 420/468/398
f 420/468/398 432/481/408 421/469/139 409/456/127
f 421/469/139 433/482/151 434/483/409 422/470/399
f 422/470/399 434/483/409 435/484/410 423/471/400
f 423/471/400 435/484/410 436/485/411 424/472/401
f 424/472/401 436/485/411 437/486/412 425/473/402
f 425/473/402 437/486/412 438/487/413 426/474/403
f 426/474/403 438/487/413 439/488/145 427/475/133
f 427/476/133 439/489/145 440/490/414 428/477/404
f 428/477/404 440/490/414 441/491/415 429/478/405
f 429/478/405 441/491/415 442/492/416 430/479/406
f 430/479/406 442/492/416 443/493/417 431/480/407
f 431/480/407 443/493/417 444/494/418 432/481/408
f 432/481/408 444/494/418 433/482/151 421/469/139
f 433/482/151 445/495/163 446/496/419 434/483/409
f 434/483/409 446/496/419 447/497/420 435/484/410
f 435/484/410 447/497/420 448/498/421 436/485/411
f 436/485/411 448/498/421 449/499/422 437/486/412
f 437/486/412 449/499/422 450/500/423 438/487/413
f 438/487/413 450/500/423 451/501/157 439/488/145
f 439/489/145 451/502/157 452/503/424 440/490/414
f 440/490/414 452/503/424 453/504/425 441/491/415
f 441/491/415 453/504/425 454/505/426 442/492/416
f 442/492/416 454/505/426 455/506/427 443/493/417
f 443/493/417 455/506/427 456/507/428 444/494/418
f 444/494/418 456/507/428 445/495/163 433/482/151
f 445/495/163 457/508/175 458/509/429 446/496/419
f 446/496/419 458/509/429 459/510/430 447/497/420
f 447/497/420 459/510/430 460/511/431 448/498/421
f 448/498/421 460/511/431 461/512/432 449/499/422
f 449/499/422 461/512/432 462/513/433 450/500/423
f 450/500/423 462/513/433 463/514/169 451/501/157
f 451/502/157 463/515/169 464/516/434 452/503/424
f 452/503/424 464/516/434 465/517/435 453/504/425
f 453/504/425 465/517/435 466/518/436 454/505/426
f 454/505/426 466/518/436 467/519/437 455/506/427
f 455/506/427 467/519/437 468/520/438 456/507/428
f 456/507/428 468/520/438 457/508/175 445/495/163
f 457/508/175 469/521/187 470/522/439 458/509/429
f 458/509/429 470/522/439 471/523/440 459/510/430
f 459/510/430 471/523/440 472/524/441 460/511/431
f 460/511/431 472/524/441 473/525/442 461/512/432
f 461/512/432 473/525/442 474/526/443 462/513/433
f 462/513/433 474/526/443 475/527/181 463/514/169
f 463/515/169 475/528/181 476/529/444 464/516/434
f 464/516/434 476/529/444 477/530/445 465/517/435
f 465/517/435 477/530/445 478/531/446 466/518/436
f 466/518/436 478/531/446 479/532/447 467/519/437
f 467/519/437 479/532/447 480/533/448 468/520/438
f 468/520/438 480/533/448 469/521/187 457/508/175
f 469/521/187 481/534/199 482/535/449 470/522/439
f 470/522/439 482/535/449 483/536/450 471/523/440
f 471/523/440 483/536/450 484/537/451 472/524/441
f 472/524/441 484/537/451 485/538/452 473/525/442
f 473/525/442 485/538/452 486/539/453 474/526/443
f 474/526/443 486/539/453 487/540/193 475/527/181
f 475/528/181 487/541/193 488/542/454 476/529/444
f 476/529/444 488/542/454 489/543/455 477/530/445
f 477/530/445 489/543/455 490/544/456 478/531/446
f 478/531/446 490/544/456 491/545/457 479/532/447
f 479/532/447 491/545/457 492/546/458 480/533/448
f 480/533/448 492/546/458 481/534/199 469/521/187
f 481/534/199 493/547/211 494/548/459 482/535/449
f 482/535/449 494/548/459 495/549/460 483/536/450
f 483/536/450 495/549/460 496/550/461 484/537/451
f 484/537/451 496/550/461 497/551/462 485/538/452
f 485/538/452 497/551/462 498/552/463 486/539/453
f 486/539/453 498/552/463 499/553/205 487/540/193
f 487/541/193 499/554/205 500/555/464 488/542/454
f 488/542/454 500/555/464 501/556/465 489/543/455
f 489/543/455 501/556/465 502/557/466 490/544/456
f 490/544/456 502/557/466 503/558/467 491/545/457
f 491/545/457 503/558/467 504/559/468 492/546/458
f 492/546/458 504/559/468 493/547/211 481/534/199
f 493/547/211 505/560/223 506/561/469 494/548/459
f 494/548/459 506/561/469 507/562/470 495/549/460
f 495/549/460 507/562/470 508/563/471 496/550/461
f 496/550/461 508/563/471 509/564/472 497/551/462
f 497/551/462 509/564/472 510/565/473 498/552/463
f 498/552/463 510/565/473 511/566/217 499/553/205
f 499/554/205 511/567/217 512/568/474 500/555/464
f 500/555/464 512/568/474 513/569/475 501/556/465
f 501/556/465 513/569/475 514/570/476 502/557/466
f 502/557/466 514/570/476 515/571/477 503/558/467
f 503/558/467 515/571/477 516/572/478 504/559/468
f 504/559/468 516/572/478 505/560/223 493/547/211
f 505/560/223 517/573/235 518/574/479 506/561/469
f 506/561/469 518/574/479 519/575/480 507/562/470
f 507/562/470 519/575/480 520/576/481 508/563/471
f 508/563/471 520/576/481 521/577/482 509/564/472
f 509/564/472 521/577/482 522/578/483 510/565/473
f 510/565/473 522/578/483 523/579/229 511/566/217
f 511/567/217 523/580/229 524/581/484 512/568/474
f 512/568/474 524/581/484 525/582/485 513/569/475
f 513/569/475 525/582/485 526/583/486 514/570/476
f 514/570/476 526/583/486 527/584/487 515/571/477
f 515/571/477 527/584/487 528/585/488 516/572/478
f 516/572/478 528/585/488 517/573/235 505/560/223
f 517/573/235 529/586/247 530/587/489 518/574/479
f 518/574/479 530/587/489 531/588/490 519/575/480
f 519/575/480 531/588/490 532/589/491 520/576/481
f 520/576/481 532/589/491 533/590/492 521/577/482
f 521/577/482 533/590/492 534/591/493 522/578/483
f 522/578/483 534/591/493 535/592/241 523/579/229
f 523/580/229 535/593/241 536/594/494 524/581/484
f 524/581/484 536/594/494 537/595/495 525/582/485
f 525/582/485 537/595/495 538/596/496 526/583/486
f 526/583/486 538/596/496 539/597/497 527/584/487
f 527/584/487 539/597/497 540/598/498 528/585/488
f 528/585/488 540/598/498 529/586/247 517/573/235
f 529/586/247 541/599/259 542/600/499 530/587/489
f 530/587/489 542/600/499 543/601/500 531/588/490
f 531/588/490 543/601/500 544/602/501 532/589/491
f 532/589/491 544/602/501 545/603/502 533/590/492
f 533/590/492 545/603/502 546/604/503 534/591/493
f 534/591/493 546/604/503 547/605/253 535/592/241
f 535/593/241 547/606/253 548/607/504 536/594/494
f 536/594/494 548/607/504 549/608/505 537/595/495
f 537/595/495 549/608/505 550/609/506 538/596/496
f 538/596/496 550/609/506 551/610/507 539/597/497
f 539/597/497 551/610/507 552/611/508 540/598/498
f 540/598/498 552/611/508 541/599/259 529/586/247
f 541/599/259 553/612/271 554/613/509 542/600/499
f 542/600/499 554/613/509 555/614/510 543/601/500
f 543/601/500 555/614/510 556/615/511 544/602/501
f 544/602/501 556/615/511 557/616/512 545/603/502
f 545/603/502 557/616/512 558/617/513 546/604/503
f 546/604/503 558/617/513 559/618/265 547/605/253
f 547/606/253 559/619/265 560/620/514 548/607/504
f 548/607/504 560/620/514 561/621/515 549/608/505
f 549/608/505 561/621/515 562/622/516 550/609/506
f 550/609/506 562/622/516 563/623/517 551/610/507
f 551/610/507 563/623/517 564/624/518 552/611/508
f 552/611/508 564/624/518 553/612/271 541/599/259
f 553/612/271 565/625/283 566/626/519 554/613/509
f 554/613/509 566/626/519 567/627/520 555/614/510
f 555/614/510 567/627/520 568/628/521 556/615/511
f 556/615/511 568/628/521 569/629/522 557/616/512
f 557/616/512 569/629/522 570/630/523 558/617/513
f 558/617/513 570/630/523 571/631/277 559/618/265
f 559/619/265 571/632/277 572/633/524 560/620/514
f 560/620/514 572/633/524 573/634/525 561/621/515
f 561/621/515 573/634/525 574/635/526 562/622/516
f 562/622/516 574/635/526 575/636/527 563/623/517
f 563/623/517 575/636/527 576/637/528 564/624/518
f 564/624/518 576/637/528 565/625/283 553/612/271
f 565/625/283 1/1/1 2/4/4 566/626/519
f 566/626/519 2/4/4 3/6/6 567/627/520
f 567/627/520 3/6/6 4/8/8 568/628/521
f 568/628/521 4/8/8 5/10/10 569/629/522
f 569/629/522 5/10/10 6/12/12 570/630/523
f 570/630/523 6/12/12 7/14/14 571/631/277
f 571/632/277 7/15/14 8/18/16 572/633/524
f 572/633/524 8/18/16 9/20/18 573/634/525
f 573/634/525 9/20/18 10/22/20 574/635/526
f 574/635/526 10/22/20 11/24/22 575/636/527
f 575/636/527 11/24/22 12/26/24 576/637/528
f 576/637/528 12/26/24 1/1/1 565/625/283
